##BranchStart 0
A17_branch_0 = {
	slot = 1
	generic = no
	ai = yes
	potential = {
		tag = A17
		NOT = { has_country_flag = formed_enteben }
	}
	has_country_shield = yes
	
	A17_those_who_fought = {
		icon = mission_noble_council
		required_missions {
			A17_contact_sorncost
		}
		position = 3
		
		provinces_to_highlight = {
			owner = {
				culture = high_lorentish
			}
			is_capital = yes
		}
		
		trigger = {
			if = {
				limit = {
					any_known_country = {
						culture = high_lorentish
					}
				}
				any_known_country = {
					is_subject = no
					culture = high_lorentish
					has_opinion = {
						who = ROOT
						value = 100
					}
				}
			}
			else = {
				num_of_allies = 1
			}
		}
		
		effect = {
			add_prestige = -10
			random_known_country = {
				limit = {
					is_subject = no
					culture = high_lorentish
					has_opinion = {
						who = ROOT
						value = 100
					}
				}
				add_opinion = {
					who = ROOT
					modifier = strengthened_ordinger_ties
				}
			}
		}
	}
}

A17_branch_1 = {
	slot = 2
	generic = no
	ai = yes
	potential = {
		tag = A17
		NOT = { has_country_flag = formed_enteben }
	}
	has_country_shield = yes
	
	A17_contact_sorncost = {
		icon = balance_of_power
		required_missions {
			A17_towards_the_future
		}
		position = 2
		
		provinces_to_highlight = {
			is_capital_of = A09
		}
		
		trigger = {
			if = {
				limit = {
					exists = A09
				}
				reverse_has_opinion = {
					who = A09
					value = 50
				}
			}
			else = {
				any_owned_province = {
					culture = sorncosti
				}
			}
		}
		
		effect = {
			A09 = {
				if = {
					limit = { NOT = { is_subject_of = ROOT } is_subject = yes }
					add_liberty_desire = 20
				}
			}
		}
	}
	
	A17_stronger_alone = {
		icon = assert_our_sovereignty
		required_missions {
			A17_a_realm_made_whole A17_contact_sorncost
		}
		position = 3
		
		provinces_to_highlight = {
			owner = {
				is_subject_of = A01
				NOT = { tag = A09 }
			}
		}
		
		trigger = {
			if = {
				limit = { A01 = { vassal = 1 NOT = { all_subject_country = { tag = A09 } } } }
				custom_trigger_tooltip = {
					tooltip = ording_lorentish_vassal_tt
					A01 = {
						any_subject_country = {
							NOT = { tag = A09 }
							has_opinion = {
								who = ROOT
								value = 100
							}
						}
					}
				}
			}
			else = {
				A01 = { vassal = 0 }
			}
		}
		
		effect = {
			A01 = {
				custom_tooltip = great_ording_lorent_rebellious_vassals_tt
				every_subject_country = {
					limit = {
						has_opinion = {
							who = ROOT
							value = 100
						}
					}
					add_liberty_desire = 25
				}
			}
		}
	}
	
	A17_our_stance_known = {
		icon = french_revolution
		required_missions {
			A17_stronger_alone A17_those_who_fought
		}
		position = 4
		
		provinces_to_highlight = {
			is_capital_of = A01
		}
		
		trigger = {
			if = {
				limit = { exists = A01 }
				A01 = {
					OR = {
						has_opinion_modifier = {
							who = ROOT
							modifier = insulted
						}
						has_opinion_modifier = {
							who = ROOT
							modifier = scornfully_insulted
						}
					}
				} 
			}
			else  = {
				NOT = { exists = A01 }
			}
		}
		
		effect = {
			add_prestige = 10
		}
	}
	
	A17_breaking_old_bonds = {
		icon = mission_consolidate_the_state
		required_missions {
			A17_our_stance_known
		}
		position = 5
		
		provinces_to_highlight = {
			is_capital_of = A01
		}
		
		trigger = {
			if = {
				limit = { exists = A01 }
				war_with = A01
			}
			else  = {
				NOT = { exists = A01 }
			}
		}
		
		effect = {
			add_country_modifier = {
				name = great_ording_free_ording
				duration = 1825
			}
			northern_flats_area = {
				limit = {
					NOT = { is_permanent_claim = ROOT }
					NOT = { is_core = ROOT }
				}
				add_permanent_claim = ROOT
			}
		}
	}
}

A17_branch_2 = {
	slot = 3
	generic = no
	ai = yes
	potential = {
		tag = A17
		NOT = { has_country_flag = formed_enteben }
	}
	has_country_shield = yes
	
	A17_towards_the_future = {
		icon = mission_indian_stateman
		required_missions {
			
		}
		position = 1
		
		trigger = {
			num_of_allies = 1
		}
		
		effect = {
			add_country_modifier = {
				name = great_ording_looking_to_the_future
				duration = 1825
			}
		}
	}
	
	A17_a_great_debt_repaid = {
		icon = mission_have_two_subjects
		required_missions {
			A17_a_realm_made_whole
		}
		position = 3
		
		trigger = {
			is_at_war = no
			treasury = 100
		}
		
		effect = {
			add_treasury = -100
			add_country_modifier = {
				name = great_ording_repaying_debts
				duration = 1825
			}
		}
	}
	
	A17_unsung_heroes = {
		icon = mission_italian_condottiere
		required_missions {
			A17_a_great_debt_repaid
		}
		position = 4
		
		trigger = {
			prestige = 25
		}
		
		effect = {
			add_prestige = -25
			define_general = {
				fire = 0
				shock = 4
				manuever = 6
				siege = 1
			}
			add_country_modifier = {
				name = great_ording_unsung_heroes
				duration = 18250
			}
		}
	}
	
	A17_protect_our_people = {
		icon = mission_conquer_50_development
		required_missions {
			A17_unsung_heroes A17_erase_reaver_legacy
		}
		position = 5
		
		provinces_to_highlight = {
			OR = {
				province_id = 113
				province_id = 75
				province_id = 58
			}
			OR = {
				NOT = { owned_by = ROOT }
				NOT = { fort_level = 2 }
				NOT = { base_manpower = 4 }
			}
		}
		
		trigger = {
			113 = {
				owned_by = ROOT
				fort_level = 2
				base_manpower = 4
			}
			75 = {
				owned_by = ROOT
				fort_level = 2
				base_manpower = 4
			}
			58 = {
				owned_by = ROOT
				fort_level = 2
				base_manpower = 4
			}
			treasury = 150
		}
		
		effect = {
			add_treasury = -150
			113 = {
				add_province_modifier = {
					name = great_ording_protect_the_people
					duration = -1
				}
			}
			75 = {
				add_province_modifier = {
					name = great_ording_protect_the_people
					duration = -1
				}
			}
			58 = {
				add_province_modifier = {
					name = great_ording_protect_the_people
					duration = -1
				}
			}
			darom_area = {
				limit = {
					NOT = { is_permanent_claim = ROOT }
					NOT = { is_core = ROOT }
				}
				add_permanent_claim = ROOT
			}
		}
	}
	
	A17_those_left_behind = {
		icon = mission_early_game_buildings
		required_missions {
			A17_protect_our_people A17_breaking_old_bonds
		}
		position = 6
		
		provinces_to_highlight = {
			area = darom_area
			NOT = { owned_by = ROOT }
		}
		
		trigger = {
			darom_area = {
				type = all
				owned_by = ROOT
			}
			treasury = 50
		}
		
		effect = {
			add_treasury = -50
			darom_area = {
				add_base_manpower = 1
				add_province_modifier = {
					name = great_ording_low_lorentish_liberation
					duration = 3650
				}
			}
			shrouded_coast_area = {
				limit = {
					NOT = { is_permanent_claim = ROOT }
					NOT = { is_core = ROOT }
				}
				add_permanent_claim = ROOT
			}
		}
	}
}

A17_branch_3 = {
	slot = 4
	generic = no
	ai = yes
	potential = {
		tag = A17
		NOT = { has_country_flag = formed_enteben }
	}
	has_country_shield = yes
	
	A17_a_blaze_of_glory = {
		icon = mission_conquer_5_states
		required_missions {
			
		}
		position = 1
		
		trigger = {
			manpower = 2
			treasury = 20
			is_at_war = yes
		}
		
		effect = {
			add_treasury = -20
			add_manpower = -2
			capital_scope = {
				cavalry = ROOT
				cavalry = ROOT
			}
			add_country_modifier = {
				name = great_ording_riders_of_ording
				duration = 1825
			}
		}
	}
	
	A17_a_realm_made_whole = {
		icon = mission_monarch_in_throne_room
		required_missions {
			A17_towards_the_future A17_a_blaze_of_glory
		}
		position = 2
		
		provinces_to_highlight = {
			province_id = 107
			NOT = { owned_by = ROOT }
		}
		
		trigger = {
			107 = {
				owned_by = ROOT
			}
		}
		
		effect = {
			deranne_area = {
				limit = {
					NOT = { is_permanent_claim = ROOT }
					NOT = { is_core = ROOT }
				}
				add_permanent_claim = ROOT
			}
		}
	}
	
	A17_memories_of_clearshore = {
		icon = mission_advance_to_the_dnieper
		required_missions {
			A17_a_realm_made_whole
		}
		position = 3
		
		provinces_to_highlight = {
			area = deranne_area
			NOT = { owned_by = ROOT }
		}
		
		trigger = {
			deranne_area = {
				type = all
				owned_by = ROOT
			}
		}
		
		effect = {
			add_power_projection = {
				type = mission_rewards_power_projection
				amount = 20
			}
		}
	}
	
	A17_erase_reaver_legacy = {
		icon = mission_impaled_soldies
		required_missions {
			A17_memories_of_clearshore
		}
		position = 4
		
		provinces_to_highlight = {
			area = deranne_area
			OR = {
				NOT = { owned_by = ROOT }
				unrest = 1
				local_autonomy = 15
			}
		}
		
		trigger = {
			deranne_area = {
				type = all
				owned_by = ROOT
				NOT { unrest = 1 }
				NOT = { local_autonomy = 15 }
			}
			dip_power = 100
		}
		
		effect = {
			add_dip_power = -100
			every_owned_province = {
				limit = { region = lencenor_region culture = derannic }
				add_culture_construction = {
					speed = 0.5
					cost = 0
				}
			}
		}
	}
	
	A17_protect_the_coasts = {
		icon = mission_galleys_in_port
		required_missions {
			A17_erase_reaver_legacy
		}
		position = 5
		
		trigger = {
			num_of_light_ship = 10
			num_of_heavy_ship = 5
		}
		
		effect = {
			add_casus_belli = {
				target = A05
				type = cb_trade_war_triggered
				months = 18250
			}
		}
	}
	
	A17_never_again = {
		icon = mission_unite_home_region
		required_missions {
			A17_protect_the_coasts
		}
		position = 6
		
		provinces_to_highlight = {
			OR = {
				AND = {
					area = deranne_area
					NOT = { culture = low_lorentish }
				}
				AND = {
					area = deranne_area
					has_port = yes
					NOT = { has_building = coastal_defence }
					NOT = { deranne_area = { has_building = coastal_defence } }
				}
			}
		}
		
		trigger = {
			deranne_area = {
				type = all
				culture = low_lorentish
			}
			deranne_area = {
				has_coastal_defence_building = yes
			}
		}
		
		effect = {
			add_prestige = 10
			add_country_modifier = {
				name = great_ording_never_again
				duration = -1
			}
			deranne_area = {
				limit = { has_port = yes }
				add_province_modifier = {
					name = great_ording_ended_raids
					duration = -1
				}
			}
		}
	}
	
	A17_farmers_and_fishermen = {
		icon = mission_invade_island
		required_missions {
			A17_those_left_behind A17_never_again A17_mauguns_people
		}
		position = 7
		
		provinces_to_highlight = {
			area = shrouded_coast_area
			NOT = { owned_by = ROOT }
		}
		
		trigger = {
			shrouded_coast_area = {
				type = all
				owned_by = ROOT
			}
		}
		
		effect = {
			shrouded_coast_area = {
				add_base_manpower = 1
				add_province_modifier = {
					name = great_ording_low_lorentish_liberation
					duration = 3650
				}
			}
		}
	}
	
	A17_restoration_of_enteben = {
		icon = mission_empire
		required_missions {
			A17_farmers_and_fishermen
		}
		position = 8
		
		trigger = {
			prestige = 50
		}
		
		effect = {
			set_country_flag = formed_enteben
			swap_non_generic_missions = yes
			override_country_name = ENTEBEN
			if = {
				limit = { NOT = { government_rank = 2 } }
				set_government_rank = 2
			}
			lower_bloodwine_area = {
				limit = {
					NOT = { is_permanent_claim = ROOT }
					NOT = { is_core = ROOT }
				}
				add_permanent_claim = ROOT
			}
			lower_winebay_area = {
				limit = {
					NOT = { is_permanent_claim = ROOT }
					NOT = { is_core = ROOT }
				}
				add_permanent_claim = ROOT
			}
			custom_tooltip = great_ording_no_form_lorent_tt
		}
	}
}

A17_branch_4 = {
	slot = 5
	generic = no
	ai = yes
	potential = {
		tag = A17
		NOT = { has_country_flag = formed_enteben }
	}
	has_country_shield = yes
	
	A17_break_rubenaire = {
		icon = mission_cannons_firing
		required_missions {
			A17_a_realm_made_whole
		}
		position = 3
		
		provinces_to_highlight = {
			province_id = 108
			NOT = { owned_by = ROOT }
		}
		
		trigger = {
			108 = {
				owned_by = ROOT
			}
		}
		
		effect = {
			southern_flats_area = {
				limit = {
					NOT = { is_permanent_claim = ROOT }
					NOT = { is_core = ROOT }
				}
				add_permanent_claim = ROOT
			}
		}
	}
	
	A17_fields_of_enteben = {
		icon = mission_wine_monopolies
		required_missions {
			A17_break_rubenaire
		}
		position = 4
		
		provinces_to_highlight = {
			area = southern_flats_area
			NOT = { owned_by = ROOT }
		}
		
		trigger = {
			southern_flats_area = {
				type = all
				owned_by = ROOT
			}
		}
		
		effect = {
			add_country_modifier = {
				name = great_ording_reclaimed_enteben
				duration = 5475
			}
		}
	}
	
	A17_forgotten_folk = {
		icon = mission_protect_granada
		required_missions {
			A17_fields_of_enteben
		}
		position = 5
		
		provinces_to_highlight = {
			area = southern_flats_area
			NOT = { owned_by = ROOT }
		}
		
		trigger = {
			southern_flats_area = {
				type = all
				owned_by = ROOT
			}
			dip_power = 50
		}
		
		effect = {
			add_dip_power = -50
			southern_flats_area = {
				add_base_production = 2
			}
		}
	}
	
	A17_mauguns_people = {
		icon = mission_mnd_khm_protect_the_cham
		required_missions {
			A17_forgotten_folk
		}
		position = 6
		
		provinces_to_highlight = {
			area = southern_flats_area
			OR = {
				NOT = { owned_by = ROOT }
				NOT = { has_production_building_trigger = yes }
			}
		}
		
		trigger = {
			southern_flats_area = {
				type = all
				owned_by = ROOT
				has_production_building_trigger = yes
			}
		}
		
		effect = {
			southern_flats_area = {
				add_base_production = 1
				add_province_modifier = {
					name = great_ording_low_lorentish_liberation
					duration = 3650
				}
			}
			shrouded_coast_area = {
				limit = {
					NOT = { is_permanent_claim = ROOT }
					NOT = { is_core = ROOT }
				}
				add_permanent_claim = ROOT
			}
		}
	}
}
# Enteben missions

A17_enteben_0 = {
	slot = 1
	generic = no
	ai = yes
	potential = {
		tag = A17
		has_country_flag = formed_enteben
	}
	has_country_shield = yes
	
	A17_entebenic_census = {
		icon = mission_african_gold
		required_missions {
			A17_restoration_of_enteben
		}
		position = 1
		
		trigger = {
			treasury = 200
		}
		
		effect = {
			add_treasury = -200
			add_country_modifier = {
				name = great_ording_performing_enteben_census
				duration = 365
			}
		}
	}
	
	A17_needs_of_enteben = {
		icon = catholic_confraternity
		required_missions {
			A17_entebenic_census
		}
		position = 2
		
		provinces_to_highlight = {
			OR = {
				AND = {
					owned_by = ROOT
					OR = {
						devastation = 1
						NOT = { development = 15 }
					}
					NOT = {
						ROOT = {
							num_of_owned_provinces_with = {
								value = 15
								NOT = { devastation = 1 }
								development = 15
							}
						}
					}
				}
				AND = {
					is_capital_of = ROOT
					NOT = { has_courthouse_building_trigger = yes }
				}
			}
		}
		
		trigger = {
			num_of_owned_provinces_with = {
				value = 15
				NOT = { devastation = 1 }
				development = 15
			}
			capital_scope = {
				has_courthouse_building_trigger = yes
			}
		}
		
		effect = {
			add_country_modifier = {
				name = great_ording_rewarded_the_people
				duration = 18250
			}
		}
	}
	
	A17_unspoken_bond = {
		icon = mission_assemble_an_army
		required_missions {
			A17_needs_of_enteben
		}
		position = 3
		
		provinces_to_highlight = {
			is_capital_of = ROOT
			NOT = { controlled_by = ROOT }
		}
		
		trigger = {
			is_at_war = yes
			manpower = 5
			capital_scope = {
				controlled_by = ROOT
			}
		}
		
		effect = {
			add_war_exhaustion = -1
			add_manpower = -5
			capital_scope = {
				infantry = ROOT
				infantry = ROOT
				infantry = ROOT
				cavalry = ROOT
				cavalry = ROOT
			}
		}
	}
	
	A17_greatest_of_horsemen = {
		icon = confront_the_lombards
		required_missions {
			A17_unspoken_bond
		}
		position = 4
		
		trigger = {
			num_of_regiments_at_full_drill = 20
		}
		
		effect = {
			add_country_modifier = {
				name = great_ording_horsemen_of_enteben
				duration = 5475
			}
		}
	}
	
	A17_finest_of_steeds = {
		icon = mission_chinese_general_riding
		required_missions {
			A17_greatest_of_horsemen
		}
		position = 5
		
		provinces_to_highlight = {
			owned_by = ROOT
			trade_goods = livestock
			OR = {
				NOT = { has_manufactory_trigger = yes }
				NOT = { base_manpower = 7 }
			}
		}
		
		trigger = {
			num_of_owned_provinces_with = {
				value = 5
				trade_goods = livestock
				has_manufactory_trigger = yes
				base_manpower = 7
			}
		}
		
		effect = {
			add_country_modifier = {
				name = great_ording_fine_steeds
				duration = 5475
			}
		}
	}
	
	A17_the_ordinger_uhlan = {
		icon = mission_conquer_5_states
		required_missions {
			A17_knighthood_for_commoners A17_finest_of_steeds
		}
		position = 6
		
		trigger = {
			army_tradition = 50
			cavalry_fraction = 0.15
		}
		
		effect = {
			add_army_tradition = -25
			add_country_modifier = {
				name = great_ording_uhlan
				duration = -1
			}
		}
	}
	
	A17_the_heroic_charge = {
		icon = mission_cossack_cavalry
		required_missions {
			A17_the_ordinger_uhlan A17_bravery_of_the_common_man
		}
		position = 7
		
		trigger = {
			has_commanding_three_star = yes
			num_of_generals = 2
		}
		
		effect = {
			remove_country_modifier = great_ording_common_man_bravery
			remove_country_modifier = great_ording_uhlan
			add_country_modifier = {
				name = great_ording_heroic_charge
				duration = -1
			}
		}
	}
	
	A17_new_chivalry = {
		icon = king_of_poland
		required_missions {
			A17_the_heroic_charge
		}
		position = 8
		
		trigger = {
			if = {
				limit = { has_estate = estate_nobles }
				estate_loyalty = {
					estate = estate_nobles
					loyalty = 50
				}
			}
			else = {
				NOT = { average_unrest = 1 }
			}
			stability = 2
		}
		
		effect = {
			add_country_modifier = {
				name = great_ording_new_chivalry
				duration = -1
			}
		}
	}
}

A17_enteben_1 = {
	slot = 2
	generic = no
	ai = yes
	potential = {
		tag = A17
		has_country_flag = formed_enteben
	}
	has_country_shield = yes
	
	A17_prepare_the_stables = {
		icon = develop_our_capital
		required_missions {
			A17_birthplace_of_the_unicorn_knight
		}
		position = 2
		
		provinces_to_highlight = {
			OR = {
				province_id = 75
				province_id = 105
				province_id = 96
			}
			NOT = { development = 15 }
		}
		
		trigger = {
			treasury = 300
			75 = {
				development = 15
			}
			105 = {
				development = 15
			}
			96 = {
				development = 15
			}
		}
		
		effect = {
			add_treasury = -300
			75 = {
				add_province_modifier = {
					name = great_ording_stables
					duration = -1
				}
			}
			105 = {
				add_province_modifier = {
					name = great_ording_stables
					duration = -1
				}
			}
			96 = {
				add_province_modifier = {
					name = great_ording_stables
					duration = -1
				}
			}
		}
	}
	
	A17_lessons_from_lessers = {
		icon = adjust_the_general_means
		required_missions {
			A17_unspoken_bond
		}
		position = 4
		
		trigger = {
			NOT = {
				estate_influence = {
					estate = estate_nobles
					influence = 50
				}
			}
			employed_advisor = {
				category = MIL
			}
		}
		
		effect = {
			add_country_modifier = {
				name = great_ording_lessons_from_commoners
				duration = -1
			}
			add_country_modifier = {
				name = great_ording_military_reform
				duration = 1825
			}
		}
	}
	
	A17_knighthood_for_commoners = {
		icon = a_show_of_strength
		required_missions {
			A17_lessons_from_lessers A17_greatest_of_horsemen
		}
		position = 5
		
		trigger = {
			army_tradition = 50
			NOT = {
				estate_influence = {
					estate = estate_nobles
					influence = 40
				}
			}
			NOT = {
				has_country_modifier = great_ording_military_reform
			}
			NOT = { has_estate_privilege = estate_nobles_officer_corp }
			NOT = { has_estate_privilege = estate_nobles_command_of_the_military }
		}
		
		effect = {
			add_army_tradition = -25
			random_owned_province = {
				spawn_rebels = {
					type = noble_rebels
					size = 2
				}
				set_province_flag = great_ording_rebels
			}
			random_owned_province = {
				limit = { NOT = { has_country_flag = great_ording_rebels } }
				spawn_rebels = {
					type = noble_rebels
					size = 2
				}
				set_province_flag = great_ording_rebels
			}
			random_owned_province = {
				limit = { NOT = { has_country_flag = great_ording_rebels } }
				spawn_rebels = {
					type = noble_rebels
					size = 2
				}
				set_province_flag = great_ording_rebels
			}
			every_owned_province = {
				clr_province_flag = great_ording_rebels
			}
			remove_country_modifier = great_ording_lessons_from_commoners
			add_country_modifier = {
				name = great_ording_expanded_knighthoods
				duration = -1
			}
			add_country_modifier = {
				name = great_ording_military_reform
				duration = 1825
			}
			set_country_flag = no_noble_military
		}
	}
	
	A17_bravery_of_the_common_man = {
		icon = mission_rb_unite_the_clans
		required_missions {
			A17_knighthood_for_commoners
		}
		position = 6
		
		trigger = {
			army_tradition = 50
			NOT = {
				estate_influence = {
					estate = estate_nobles
					influence = 30
				}
			}
			NOT = {
				has_country_modifier = great_ording_military_reform
			}
			is_at_war = yes
			war_score = 25
		}
		
		effect = {
			add_army_tradition = -25
			remove_country_modifier = great_ording_expanded_knighthoods
			add_country_modifier = {
				name = great_ording_common_man_bravery
				duration = -1
			}
			add_country_modifier = {
				name = great_ording_military_reform
				duration = 1825
			}
		}
	}
	
	A17_battle_of_morban_flats = {
		icon = mission_rb_the_thirteen_colonies
		required_missions {
			A17_the_black_tower A17_the_heroic_charge
		}
		position = 8
		
		provinces_to_highlight = {
			province_id = 338
			owner = { NOT = { is_not_evil = yes } }
		}
		
		trigger = {
			has_global_modifier_value = {
				which = cavalry_power
				value = 0.50
			}
			338 = {
				owner = { is_not_evil = yes }
			}
			NOT = { has_country_modifier = great_ording_pilgrimage }
		}
		
		effect = {
			add_country_modifier = {
				name = great_ording_pilgrimage
				duration = 1095
			}
			country_event = { id = flavour_great_ording.10 days = 365 }
			country_event = { id = flavour_great_ording.11 days = 730 }
		}
	}
}

A17_enteben_2 = {
	slot = 3
	generic = no
	ai = yes
	potential = {
		tag = A17
		has_country_flag = formed_enteben
	}
	has_country_shield = yes
	
	A17_birthplace_of_the_unicorn_knight = {
		icon = mission_rb_conquer_wales
		required_missions {
			A17_restoration_of_enteben
		}
		position = 1
		
		provinces_to_highlight = {
			area = redglades_area
			OR = {
				owner = { is_subject = yes NOT = { is_subject_of = A17 } }
				owner = { tag = A01 }
			}
		}
		
		trigger = {
			redglades_area = {
				type = all
				owner = {
					OR = {
						is_subject = no
						is_subject_of = A17
					}
					NOT = { tag = A01 }
				}
			}
		}
		
		effect = {
			redglades_area = {
				limit = { 
					NOT = { is_permanent_claim = ROOT }
					NOT = { is_core = ROOT }
				}
				add_permanent_claim = ROOT
			}
			if = {
				limit = { exists = A03 }
				add_casus_belli = {
					target = A03
					type = cb_vassalize_mission
					months = -1
				}
			}
		}
	}
	
	A17_negotiate_entry = {
		icon = mission_alliances
		required_missions {
			A17_birthplace_of_the_unicorn_knight
		}
		position = 2
		
		provinces_to_highlight = {
			area = redglades_area
			OR = {
				NOT = { country_or_non_sovereign_subject_holds = ROOT }
				unrest = 1
			}
		}
		
		trigger = {
			redglades_area = {
				type = all
				country_or_non_sovereign_subject_holds = ROOT
				NOT = { unrest = 1 }
			}
			OR = {
				has_dip_advisor_3 = yes
				dip = 4
			}
		}
		
		effect = {
			add_accepted_culture = moon_elf
		}
	}
	
	A17_memories_of_the_past = {
		icon = mission_build_up_to_force_limit
		required_missions {
			A17_prepare_the_stables A17_negotiate_entry
		}
		position = 3
		
		trigger = {
			OR = {
				ruler_has_personality = just_personality
				ruler_has_personality = righteous_personality
				ruler_has_personality = kind_hearted_personality
				ruler_has_personality = benevolent_personality
				ruler_has_personality = incorruptible_personality
				dip = 5
			}
		}
		
		effect = {
			custom_tooltip = great_ording_unicorn_tt
			set_country_flag = great_ording_unicorn
			set_country_flag = loose_anti_evil #lets you use the cb against all rulers on the same continent
			set_ruler_flag = great_ording_unicorn_hunt
			add_ruler_modifier = {
				name = great_ording_hunting_unicorn
				duration = 365
			}
			country_event = { id = flavour_great_ording.1 days = 365 }
		}
	}
	
	A17_army_of_lencenor = {
		icon = mission_assemble_an_army
		required_missions {
			A17_memories_of_the_past A17_rosefall
		}
		position = 5
		
		provinces_to_highlight = {
			province_id = 67
			OR = {
				unrest = 1
				NOT = { owned_by = ROOT }
				owner = { NOT = { is_not_evil = yes } }
			}
		}
		
		trigger = {
			67 = {
				NOT = { unrest = 1 }
				owned_by = ROOT
			}
			67 = { owner = { is_not_evil = yes } }
		}
		
		effect = {
			add_country_modifier = {
				name = great_ording_pilgrimage
				duration = 1095
			}
			country_event = { id = flavour_great_ording.2 days = 365 }
			country_event = { id = flavour_great_ording.3 days = 730 }
		}
	}
	
	A17_protect_the_halflings = {
		icon = mission_indian_stateman
		required_missions {
			A17_army_of_lencenor
		}
		position = 6
		
		provinces_to_highlight = {
			province_id = 162
		}
		
		trigger = {
			162 = {
				num_of_units_in_province = {
					who = ROOT
					amount = 10
				}
				if = {
					limit = { has_dlc = "Leviathan" }
					OR = {
						has_great_project = {
							type = aelcandar
							tier = 1
						}
						has_great_project = {
							type = aelcandar
							tier = 2
						}
						has_great_project = {
							type = aelcandar
							tier = 3
						}
					}
				}
				else = {
					fort_level = 4
				}
				owned_by = ROOT
			}
			162 = { owner = { is_not_evil = yes } }
			NOT = { has_country_modifier = great_ording_pilgrimage }
		}
		effect = {
			add_country_modifier = {
				name = great_ording_pilgrimage
				duration = 1095
			}
			country_event = { id = flavour_great_ording.4 days = 365 }
			country_event = { id = flavour_great_ording.5 days = 730 }
		}
	}
	
	A17_the_black_tower = {
		icon = mission_european_church
		required_missions {
			A17_protect_the_halflings
		}
		position = 7
		
		provinces_to_highlight = {
			province_id = 216
		}
		
		trigger = {
			if = {
				limit = { owns = 216 }
				prestige = 10
			}
			else = {
				216 = {
					owner = {  
						has_spy_network_from = {
							who = ROOT
							value = 25
						}
					}
				}
			}
			216 = { owner = { is_not_evil = yes }}
			NOT = { has_country_modifier = great_ording_pilgrimage }
		}
		
		effect = {
			add_country_modifier = {
				name = great_ording_pilgrimage
				duration = 1095
			}
			country_event = { id = flavour_great_ording.6 days = 365 }
			country_event = { id = flavour_great_ording.7 days = 730 }
		}
	}
	
	A17_sally_forth = {
		icon = mission_conquer_50_development
		required_missions {
			A17_the_black_tower
		}
		position = 8
		
		provinces_to_highlight = {
			province_id = 254
		}
		
		trigger = {
			prestige = 100
			254 = { 
				owner = {
					has_opinion = {
						who = ROOT
						value = 50
					}
				}
			}
			254 = { owner = { is_not_evil = yes } }
			NOT = { has_country_modifier = great_ording_pilgrimage }
		}
		
		effect = {
			add_country_modifier = {
				name = great_ording_pilgrimage
				duration = 1095
			}
			country_event = { id = flavour_great_ording.8 days = 365 }
			country_event = { id = flavour_great_ording.9 days = 730 }
		}
	}
	
	A17_the_grand_tournament = {
		icon = mission_crusade_for_varna
		required_missions {
			A17_new_chivalry A17_battle_of_morban_flats A17_sally_forth
		}
		position = 9
		
		provinces_to_highlight = {
			province_id = 799
			owner = { NOT = { is_not_evil = yes } }
		}
		
		trigger = {
			legitimacy = 100
			prestige = 100
			treasury = 500
			799 = { owner = { is_not_evil = yes } }
			NOT = { has_country_modifier = great_ording_pilgrimage }
		}
		
		effect = {
			add_treasury = -500
			country_event = { id = flavour_great_ording.12 days = 365 }
			country_event = { id = flavour_great_ording.13 days = 730 }
		}
	}
}

A17_enteben_3 = {
	slot = 4
	generic = no
	ai = yes
	potential = {
		tag = A17
		has_country_flag = formed_enteben
	}
	has_country_shield = yes
	
	A17_the_broken_kingdom = {
		icon = mission_kowtow
		required_missions {
			A17_restoration_of_enteben
		}
		position = 1
		
		provinces_to_highlight = {
			OR = {
				province_id = 90
				AND = {
					province_id = 88
					NOT = { exists = A09 }
				}
			}
			NOT = { owned_by = ROOT }
		}
		
		trigger = {
			owns = 90
			if = {
				limit = { exists = A09 }
				reverse_has_opinion = {
					who = A09
					value = 100
				}
			}
			else = {
				owns = 88
			}
		}
		
		effect = {
			if = {
				limit = { exists = A09 }
				A09 = { country_event = { id = flavour_great_ording.17 } }
			}
			define_advisor = {
				culture = sorncosti
				type = diplomat
				skill = 3
				cost_multiplier = 0.33
			}
		}
	}
	
	A17_the_southern_bulwark = {
		icon = mission_japanese_fort
		required_missions {
			A17_the_high_lords A17_the_broken_kingdom
		}
		position = 2
		
		provinces_to_highlight = {
			OR = {
				province_id = 114
				province_id = 75
				province_id = 113
			}
			OR = {
				NOT = { province_has_current_tech_fort_trigger = yes }
				NOT = { owned_by = ROOT }
			}
		}
		
		trigger = {
			treasury = 300
			114 = {
				province_has_current_tech_fort_trigger = yes
				owned_by = ROOT
			}
			75 = {
				province_has_current_tech_fort_trigger = yes
				owned_by = ROOT
			}
			113 = {
				province_has_current_tech_fort_trigger = yes
				owned_by = ROOT
			}
		}
		
		effect = {
			add_treasury = -300
			114 = {
				add_province_modifier = {
					name = great_ording_southern_bulwark
					duration = -1
				}
			}
			75 = {
				add_province_modifier = {
					name = great_ording_southern_bulwark
					duration = -1
				}
			}
			113 = {
				add_province_modifier = {
					name = great_ording_southern_bulwark
					duration = -1
				}
			}
		}
	}
	
	A17_a_lone_rose = {
		icon = mission_teutonic_knights
		required_missions {
			A17_the_southern_bulwark A17_end_southern_raids
		}
		position = 3
		
		provinces_to_highlight = {
			OR = {
				area = sorncost_vines_area
				area = sornhills_area
			}
			NOT = { country_or_non_sovereign_subject_holds = ROOT }
		}
		
		trigger = {
			total_development = A01
			army_size = A01
			sorncost_vines_area = {
				type = all
				country_or_non_sovereign_subject_holds = ROOT
			}
			sornhills_area = {
				type = all
				country_or_non_sovereign_subject_holds = ROOT
			}
		}
		
		effect = {
			lencenor_region = {
				limit = { 
					NOT = { is_permanent_claim = ROOT }
					NOT = { is_core = ROOT }
				}
				add_permanent_claim = ROOT
			}
		}
	}
	
	A17_rosefall = {
		icon = mission_steppe_warriors
		required_missions {
			A17_a_lone_rose
		}
		position = 4
		
		provinces_to_highlight = {
			province_id = 67
			NOT = { owned_by = ROOT }
		}
		
		trigger = {
			owns = 67
		}
		
		effect = {
			lorenans_reach_area = {
				limit = { 
					NOT = { is_permanent_claim = ROOT }
					NOT = { is_core = ROOT }
				}
				add_permanent_claim = ROOT
			}
		}
	}
	
	A17_the_greatest_extent = {
		icon = mission_pf_map_table
		required_missions {
			A17_rosefall
		}
		position = 5
		
		provinces_to_highlight = {
			area = lorenans_reach_area
			NOT = { owned_by = ROOT }
		}
		
		trigger = {
			lorenans_reach_area = {
				type = all
				owned_by = ROOT
			}
		}
		
		effect = {
			custom_tooltip = claim_all_redfoot_tt
			hidden_effect = {
				small_country_region = {
					limit = {
						culture = redfoot_halfling
						NOT = { is_permanent_claim = ROOT }
						NOT = { is_core = ROOT }
					}
					add_permanent_claim = ROOT
				}
			}
			63 = {
				if = {
					limit = {
						NOT = { is_permanent_claim = ROOT }
						NOT = { is_core = ROOT }
					}
					add_permanent_claim = ROOT
				}
			}
		}
	}
	
	A17_freedom = {
		icon = mission_persian_soldiers
		required_missions {
			A17_the_greatest_extent
		}
		position = 6
		
		trigger = {
			high_tolerance_halfling_race_trigger = yes
		}
		
		effect = {
			small_country_region = {
				limit = {
					NOT = { is_permanent_claim = ROOT }
					NOT = { is_core = ROOT }
				}
				add_permanent_claim = ROOT
			}
		}
	}
	
	A17_liberate_the_halflings = {
		icon = mission_non-western_soldiers
		required_missions {
			A17_freedom
		}
		position = 8
		
		provinces_to_highlight = {
			region = small_country_region
			NOT = { owned_by = ROOT }
		}
		
		trigger = {
			small_country_region = {
				type = all
				owned_by = ROOT
			}
		}
		
		effect = {
			small_country_region = {
				add_province_modifier = {
					name = great_ording_small_country_integration
					duration = 18250
				}
			}
		}
	}
	
	A17_sucessors_of_lorenan = {
		icon = mission_have_two_subjects
		required_missions {
			A17_liberate_the_halflings A17_the_treacherous_guard
		}
		position = 9
		
		provinces_to_highlight = {
			region = west_dameshead_region
			NOT = { owned_by = ROOT }
		}
		
		trigger = {
			west_dameshead_region = {
				type = all
				owned_by = ROOT
			}
		}
		
		effect = {
			add_adm_power = 100
			add_dip_power = 100
			add_mil_power = 100
			add_country_modifier = {
				name = "hegemonic_ambition"
				duration = 18250 # 50 years
			}
		}
	}
}

A17_enteben_4 = {
	slot = 5
	generic = no
	ai = yes
	potential = {
		tag = A17
		has_country_flag = formed_enteben
	}
	has_country_shield = yes
	
	A17_the_high_lords = {
		icon = mission_monarch_in_throne_room
		required_missions {
			A17_restoration_of_enteben
		}
		position = 1
		
		provinces_to_highlight = {
			OR = {
				area = lower_bloodwine_area
				area = lower_winebay_area
			}
			NOT = { owned_by = ROOT }
		}
		
		trigger = {
			lower_bloodwine_area = {
				type = all
				owned_by = ROOT
			}
			lower_winebay_area = {
				type = all
				owned_by = ROOT
			}
		}
		
		effect = {
			define_advisor = {
				culture = high_lorentish
				type = diplomat
				skill = 3
				cost_multiplier = 0.33
			}
		}
	}
	
	A17_end_southern_raids = {
		icon = mission_great_wall
		required_missions {
			A17_the_high_lords
		}
		position = 2
		
		provinces_to_highlight = {
			area = lower_winebay_area
			has_port = yes
			NOT = { has_building = coastal_defence }
			NOT = { lower_winebay_area = { has_building = coastal_defence } }
		}
		
		trigger = {
			manpower = 5
			lower_winebay_area = {
				has_coastal_defence_building = yes
			}
		}
		
		effect = {
			add_manpower = -5
			lower_winebay_area = {
				limit = { has_port = yes }
				add_province_modifier = {
					name = great_ording_ended_raids
					duration = -1
				}
			}
		}
	}
	
	A17_old_friends = {
		icon = mission_rb_monopolize_the_channel
		required_missions {
			A17_a_lone_rose
		}
		position = 4
		
		provinces_to_highlight = {
			is_capital_of = A20
		}
		
		trigger = {
			A20 = {
				NOT = {
					any_ally = {
						tag = A01
					}
				}
			}
			reverse_has_opinion = {
				who = A20
				value = 150
			}
		}
		
		effect = {
			add_historical_friend = A20
			A20 = {
				remove_historical_friend = A01
				add_historical_friend = ROOT
			}
			A01 = {
				remove_historical_friend = A20
			}
		}
	}
	
	A17_edge_of_the_empire = {
		icon = mission_rb_into_england
		required_missions {
			A17_rosefall
		}
		position = 5
		
		trigger = {
			army_size = 50
		}
		
		effect = {
			carneteria_area = {
				limit = {
					NOT = { is_permanent_claim = ROOT }
					NOT = { is_core = ROOT }
				}
				add_permanent_claim = ROOT
			}
		}
	}
	
	A17_counts_dukes_kings = {
		icon = mission_rb_rein_in_the_highland_clans
		required_missions {
			A17_edge_of_the_empire
		}
		position = 6
		
		provinces_to_highlight = {
			area = carneteria_area
			OR = {
				NOT = { owned_by = ROOT }
				NOT = { is_core = ROOT }
			}
		}
		
		trigger = {
			carneteria_area = {
				type = all
				owned_by = ROOT
				is_core = ROOT
			}
		}
		
		effect = {
			carneteria_area = {
				set_in_empire = no
			}
		}
	}
	
	A17_the_third_kingdom = {
		icon = expand_the_terraferma
		required_missions {
			A17_counts_dukes_kings
		}
		position = 7
		
		provinces_to_highlight = {
			area = carneteria_area
			OR = {
				unrest = 1
				AND = {
					NOT = { province_has_current_tech_fort_trigger = yes }
					NOT = { carneteria_area = { province_has_current_tech_fort_trigger = yes } }
				}
			}
		}
		
		trigger = {
			carneteria_area = {
				type = all
				NOT = { unrest = 1 }
			}
			carneteria_area = {
				province_has_current_tech_fort_trigger = yes
			}
		}
		
		effect = {
			carneteria_area = {
				add_local_autonomy = -15
			}
			wesdam_area = {
				limit = {
					NOT = { is_permanent_claim = ROOT }
					NOT = { is_core = ROOT }
				}
				add_permanent_claim = ROOT
			}
		}
	}
	
	A17_the_treacherous_guard = {
		icon = expand_the_swiss_guard
		required_missions {
			A17_the_third_kingdom
		}
		position = 8
		
		provinces_to_highlight = {
			area = wesdam_area
			NOT = { owned_by = ROOT }
		}
		
		trigger = {
			wesdam_area = {
				type = all
				owned_by = ROOT
			}
		}
		
		effect = {
			west_dameshead_region = {
				limit = {
					NOT = { is_permanent_claim = ROOT }
					NOT = { is_core = ROOT }
				}
				add_permanent_claim = ROOT
			}
		}
	}
}
