
seinathil_missions_column_0 = {
	slot = 1
	generic = no
	ai = yes
	potential = {
		tag = A90
	}
	has_country_shield = yes
	
	seinathil_senior_branch = {
		icon = mission_candide_letter
		required_missions {
			
		}
		position = 1
		
		trigger = {
			OR = {
				A45 = {
					has_opinion = {
						who = ROOT
						value = 100
					}
				}
				A45 = {
					is_rival = A90
				}
			}
		}
		
		effect = {
			add_prestige = 10
			add_legitimacy = 10
		}
	}
	
	seinathil_istralores_stage = {
		icon = mission_confrontation
		required_missions {
			seinathil_senior_branch
		}
		position = 2
		
		trigger = {
			prestige = A45
		}
		
		effect = {
			add_casus_belli = {
				target = A45
				type = cb_restore_personal_union
				months = 240
			}
		}
	}
	
	seinathil_conductor_ensemble = {
		icon = mission_monarch_in_throne_room
		required_missions {
			seinathil_istralores_stage
		}
		position = 3
		
		trigger = {
			senior_union_with = A45
			NOT = {
				A45 = {
					liberty_desire = 50
				}
			}
		}
		
		effect = {
			add_country_modifier = {
				name = "A90_reigning_in_the_marshals"
				duration = 18250
			}
			create_general = {
				tradition = 75
			}
		}
	}
	
	seinathil_deamoine_madrigals = {
		icon = mission_rb_conquer_wales
		required_missions {
			seinathil_rebuild_songbarges
		}
		position = 4
		
		provinces_to_highlight = {
			province_id = 333
			NOT = { development = 20 }
		}
		
		trigger = {
			333 = {
				owned_by = ROOT
				development = 20
			}
		}
		
		effect = {
			custom_tooltip = seinathil_deamoine_madrigals.tt
			333 = {
				change_trade_goods = paper
			}
			set_country_flag = seinathil_paper1
			hidden_effect = {
				every_owned_province = {
					limit = { trade_goods = paper }
					add_province_modifier = { 
						name = A90_sheet_music_1
						duration = -1
						hidden = yes
					}
				}
			}
		}	
	}
	
	seinathil_esterfield_ballads = {
		icon = mission_hanseatic_city
		required_missions {
			seinathil_deamoine_madrigals
		}
		position = 5
		
		provinces_to_highlight = {
			province_id = 279
			NOT = { development = 25 }
		}
		
		trigger = {
			279 = {
				owned_by = ROOT
				development = 25
			}
		}
		
		effect = {
			custom_tooltip = seinathil_esterfield_ballads.tt
			279 = {
				change_trade_goods = paper
			}
			set_country_flag = seinathil_paper2
			hidden_effect = {
				every_owned_province = {
					limit = { trade_goods = paper }
					add_province_modifier = { 
						name = A90_sheet_music_2
						duration = -1
						hidden = yes
					}
				}
			}
		}
	}
	
	seinathil_cardesti_neighborhoods = {
		icon = mission_colonial
		required_missions {
			seinathil_esterfield_ballads
		}
		position = 6
		
		provinces_to_highlight = {
			area = songbarges_area
			NOT = { development = 30 }
		}
		
		trigger = {
			songbarges_area = {
				type = all
				owned_by = ROOT
				development = 30
			}
		}
		
		effect = {
			add_country_modifier = {
				name = "A90_cardesti_haven"
				duration = 36500
			}
		}
	}
	
	seinathil_freedom_triumph = {
		icon = mission_warrior_gold
		required_missions {
			seinathil_seincourt
		}
		position = 7
		
		trigger = {
			custom_trigger_tooltip = {
				tooltip = seinathil_freedom_triumph_tt
				has_country_flag = A90_fought_evil
			}
		}
		
		effect = {
			add_country_modifier = {
				name = "A90_songs_freedom_triumph"
				duration = 9125
			}
		}
	}
}

seinathil_missions_column_2 = {
	slot = 2
	generic = no
	ai = yes
	potential = {
		tag = A90
	}
	has_country_shield = yes
	
	seinathil_rally_forces = {
		icon = mission_build_up_to_force_limit
		required_missions {
			
		}
		position = 1
		
		trigger = {
			army_size_percentage = 1.0
		}
		
		effect = {
			songbarges_area = {
				add_permanent_claim = ROOT
			}
		}
	}
	
	seinathil_singing_songbarges = {
		icon = mission_conquer_50_development
		required_missions {
			seinathil_rally_forces
			seinathil_fledgling_fugue
		}
		position = 2
		
		provinces_to_highlight = {
			area = songbarges_area
			NOT = { country_or_non_sovereign_subject_holds = ROOT }
		}
		
		trigger = {
			songbarges_area = {
				type = all
				country_or_non_sovereign_subject_holds = ROOT
			}
		}
		
		effect = {
			add_country_modifier = {
				name = "A90_singing_songbarges"
				duration = 3650
			}
		}
	}
	
	seinathil_rebuild_songbarges = {
		icon = mission_early_game_buildings
		required_missions {
			seinathil_singing_songbarges
			seinathil_swelling_seranade
		}
		position = 3
		
		provinces_to_highlight = {
			area = songbarges_area
			NOT = { development = 15 }
		}
		
		trigger = {
			songbarges_area = {
				type = all
				development = 15
			}
			dip_power = 100
		}
		
		effect = {
			add_dip_power = -100
			274 = {
				change_trade_goods = paper
			}
			add_country_modifier = {
				name = "A90_rebuild_songbridges"
				duration = 9125
			}
		}
	}
	
	seinathil_bardic_college = {
		icon = mission_early_modern_university
		required_missions {
			seinathil_rebuild_songbarges seinathil_mighty_minuet
		}
		position = 4
		
		trigger = {
			treasury = 300
			adm_power = 100
			mil_power = 100
			artist = 2
		}
		
		effect = {
			add_treasury = -300
			add_adm_power = -100
			add_mil_power = -100
			916 = {
				add_permanent_province_modifier = {
					name = "A90_bardic_college_1"
					duration = -1
				}
				add_building_construction = {
					building = university
					speed = 0.5
					cost = 0
				}
			}
		}
	}
	
	seinathil_reinstate_warsingers = {
		icon = mission_assemble_an_army
		required_missions {
			seinathil_bardic_college seinathil_climactic_concerto
		}
		position = 5
		
		trigger = {
			any_owned_province = {
				has_building = university
			}
			treasury = 300
		}
		
		effect = {
			add_treasury = -300
			set_country_flag = seinathil_mercs_unlocked # Add Mercenaries
			custom_tooltip = unlock_seinathil_warsingers
			custom_tooltip = merc_elite_no_army_prof_tt
		}
	}
	
	seinathil_imperial_ambitions = {
		icon = mission_noble_council
		required_missions {
			seinathil_seincourt
		}
		position = 7
		
		provinces_to_highlight = {
			owner = {
				is_elector = yes
				NOT = { preferred_emperor = ROOT }
			}
			is_capital = yes
		}
		
		trigger = {
			calc_true_if = {
				desc = gen_hre_electors.tooltip
				all_elector = {
					preferred_emperor = ROOT
				}
				amount = 2
			}
		}
		
		effect = {
			add_country_modifier = {
				name = "A90_imperial_ambitions"
				duration = 9125
			}
		}
	}
	
	seinathil_songemperor = {
		icon = mission_crowning
		required_missions {
			seinathil_imperial_ambitions
		}
		position = 8
		
		trigger = {
			is_emperor = yes
		}
		
		effect = {
			add_country_modifier = {
				name = "A90_songemperor"
				duration = 9125
			}
		}
	}
	
	seinathil_united_anbennar = {
		icon = mission_restore_kiev
		required_missions {
			seinathil_songemperor
		}
		position = 9
		
		provinces_to_highlight = {
			owner = {
				is_part_of_hre = yes
				NOT = { has_matching_religion = ROOT }
			}
		}
		
		trigger = {
			calc_true_if = {
				all_country = {
					is_part_of_hre = yes
					has_matching_religion = ROOT
				}
				amount = 40
			}
		}
		
		effect = {
			add_country_modifier = {
				name = "A90_united_anbennar"
				duration = -1
			}
		}
	}
	
	seinathil_anbennar_dream = {
		icon = all_bases_covered
		required_missions {
			seinathil_united_anbennar
		}
		position = 10
		
		provinces_to_highlight = {
			owner = {
				is_part_of_hre = yes
			}
		}
		
		trigger = {
			calc_true_if = {
				all_country = {
					is_part_of_hre = yes
				}
				amount = 70
			}
			hre_reform_passed = emperor_reichstag_collegia
		}
		
		effect = {
			country_event = { id = seinathil.10 }
		}
	}
}

seinathil_missions_column_3 = {
	slot = 3
	generic = no
	ai = yes
	potential = {
		tag = A90
	}
	has_country_shield = yes
	
	seinathil_fledgling_fugue = {
		icon = mission_dancing_with_dead
		required_missions {
			
		}
		position = 1
		
		trigger = {
			legitimacy = 100
			prestige = 50
		}
		
		effect = {
			add_prestige = -30
			add_legitimacy = -30
			A90 = { country_event = { id = seinathil.1 } }
		}
	}
	
	seinathil_swelling_seranade = {
		icon = mission_dancing_with_dead
		required_missions {
			seinathil_fledgling_fugue
		}
		position = 2
		
		trigger = {
			legitimacy = 100
			prestige = 60
		}
		
		effect = {
			add_prestige = -30
			add_legitimacy = -30
			add_dip_power = 200
		}
	}
	
	seinathil_mighty_minuet = {
		icon = mission_dancing_with_dead
		required_missions {
			seinathil_swelling_seranade
		}
		position = 3
		
		trigger = {
			legitimacy = 100
			prestige = 80
		}
		
		effect = {
			add_prestige = -30
			add_legitimacy = -30
			add_country_modifier = {
				name = "A90_mighty_minuet"
				duration = 5475
			}
		}
	}
	
	seinathil_climactic_concerto = {
		icon = mission_dancing_with_dead
		required_missions {
			seinathil_mighty_minuet
		}
		position = 4
		
		trigger = {
			legitimacy = 100
			prestige = 90
		}
		
		effect = {
			add_prestige = -30
			add_legitimacy = -30
			A90 = { country_event = { id = seinathil.2 } } 
		}
	}
	
	seinathil_seincourt = {
		icon = imperial_ascendancy
		required_missions {
			seinathil_reinstate_warsingers
			seinathil_climactic_concerto
			seinathil_support_mains
		}
		position = 6
		
		trigger = {
			legitimacy = 100
			prestige = 99
		}
		
		effect = {
			add_government_reform = seincourt_reform
			A90 = { country_event = { id = seinathil.14 } } 
		}
	}
	
	seinathil_fight_muse = {
		icon = army_reforms
		required_missions {
			seinathil_imperial_ambitions
		}
		position = 8
		
		trigger = {
			hre_leagues_enabled = yes
			OR = {
				AND = {
					religion = regent_court
					is_league_leader = yes
				}
				in_league = regent_court
			}
		}
		
		effect = {
			add_country_modifier = {
				name = "A90_for_regent_court"
				duration = 9125
			}
		}
	}
	
	seinathil_choose_muse = {
		icon = mission_pray_light
		required_missions {
			seinathil_fight_muse
		}
		position = 9
		
		trigger = {
			hre_religion = regent_court
			religion = regent_court
		}
		
		effect = {
			custom_tooltip = seinathil_choose_muse.tt
			hidden_effect = { country_event = { id = seinathil.20 }  }
		}
	}
}

seinathil_missions_column_4 = {
	slot = 4
	generic = no
	ai = yes
	potential = {
		tag = A90
	}
	has_country_shield = yes
	
	seinathil_new_allies = {
		icon = mission_alliances
		required_missions {
			
		}
		position = 1
		
		trigger = {
			num_of_allies = 1
			calc_true_if = {
				all_ally = {
					has_opinion = {
						who = ROOT
						value = 150
					}
				}
				amount = 1
			}
		}
		
		effect = {
			add_country_modifier = {
				name = "A90_friendship"
				duration = 3650
			}
			hidden_effect = {
				set_variable = {
					which = seinathilBardicAlliesWarWon
					value = 0
				}
			}
		}
	}
	
	seinathil_bard_support = {
		icon = mission_reliable_allies
		required_missions {
			seinathil_fledgling_fugue
			seinathil_new_allies
		}
		position = 2
		
		trigger = {
			any_ally = {
				trust = {
					who = ROOT
					value = 80
				}
			}
		}
		
		effect = {
			custom_tooltip = seinathil_bard_support.tt
			random_ally = {
				limit = {
					trust = {
						who = ROOT
						value = 80
					}
				}
				set_country_flag = A90_bardic_ally
				add_historical_friend = A90
				A90 = {
					add_historical_friend = PREV
				}
			}
			set_country_flag = A90_bardic_mod1		
		}
	}
	
	seinathil_war_friendship = {
		icon = mission_break_the_tatar_yoke
		required_missions {
			seinathil_swelling_seranade
			seinathil_bard_support
		}
		position = 3
		
		trigger = {
			custom_trigger_tooltip = {
				tooltip = seinathil_war_friendship_tt
				check_variable = {
					which = seinathilBardicAlliesWarWon
					value = 5
				}
			}
		}
		
		effect = {
			add_prestige = 25
			add_legitimacy = 25
			add_treasury = 300
		}
	}
	
	seinathil_song_blood = {
		icon = mission_recruit_streltsy
		required_missions {
			seinathil_mighty_minuet
			seinathil_war_friendship
		}
		position = 4
		
		trigger = {
			custom_trigger_tooltip = {
				tooltip = seinathil_song_blood_tt
				check_variable = {
					which = seinathilBardicAlliesWarWon
					value = 10
				}
			}
		}
		
		effect = {
			custom_tooltip = seinathil_skald_allies_tt2
			clr_country_flag = A90_bardic_mod1
			set_country_flag = A90_bardic_mod2
			hidden_effect = {
				every_country = {
					remove_country_modifier = A90_bardic_influence_1
				}
			}
		}
	}
	
	seinathil_support_mains = {
		icon = mission_crusade_for_varna
		required_missions {
			seinathil_climactic_concerto
			seinathil_song_blood
		}
		position = 5
		
		trigger = {
			custom_trigger_tooltip = {
				tooltip = seinathil_support_mains_tt
				check_variable = {
					which = seinathilBardicAlliesWarWon
					value = 15
				}
			}
		}
		
		effect = {
			custom_tooltip = seinathil_support_mains_tt2
			clr_country_flag = A90_bardic_mod2
			set_country_flag = A90_bardic_mod3
			hidden_effect = {
				every_country = {
					remove_country_modifier = A90_bardic_influence_2
				}
			}
		}
	}
	
	seinathil_strengthening_bards = {
		icon = empower_the_junkers
		required_missions {
			seinathil_seincourt
		}
		position = 7
		
		trigger = {
			estate_loyalty = {
				estate = estate_mages
				loyalty = 70
			}
			estate_influence = {
				estate = estate_mages
				influence = 60
			}
		}
		
		effect = {
			custom_tooltip = seinathil_strengthening_bards_tt
			clr_country_flag = A90_bardic_mod3
			set_country_flag = A90_bardic_mod4
			hidden_effect = {
				every_country = {
					remove_country_modifier = A90_bardic_influence_3
				}
			}
		}
	}
	
	seinathil_modernize_college = {
		icon = Compulsory_Education
		required_missions {
			seinathil_strengthening_bards
		}
		position = 8
		
		trigger = {
			estate_loyalty = {
				estate = estate_mages
				loyalty = 70
			}
			treasury = 1000
		}
		
		effect = {
			custom_tooltip = seinathil_modernize_college_tt
			set_country_flag = A90_modern_college
			add_treasury = -1000
		}
	}
	
	seinathil_repair_swansong = {
		icon = mission_smith
		required_missions {
			seinathil_modernize_college
		}
		position = 10
		
		provinces_to_highlight = {
			trade_goods = damestear
			AND = {
				NOT = { country_or_subject_holds = ROOT }
				NOT = { owner = { any_ally = { tag = ROOT } } }
			}
		}
		
		trigger = {
			OR = {
				damestear = 1
				any_subject_country = {
					damestear = 1
				}
				any_ally = {
					damestear = 1
				}
			}
			custom_trigger_tooltip = {
				tooltip = tooltip_has_enchantment_2
				has_ruler_flag = enchantment_2
			}
			if = {
				limit = {
					has_dlc = "Emperor"
				}
				estate_loyalty = {
					estate = estate_mages
					loyalty = 70
				}
			}
			else = {
				estate_loyalty = {
					estate = estate_mages
					loyalty = 55
				}
			}
			treasury = 1000
		}
		
		effect = {
			add_treasury = -1000
			add_country_modifier = {
				name = A90_repairing_swansong 
				duration = 1095
			}
			hidden_effect = { country_event = { id = seinathil.17 days = 1095 } }
		}
	}
	
	seinathil_get_swansong = {
		icon = counter_reformation
		required_missions {
			seinathil_repair_swansong
		}
		position = 11
		
		trigger = {
			NOT = {
				has_country_modifier = A90_repairing_swansong
			}
			legitimacy = 100
			prestige = 99
			dip_power = 200
			custom_trigger_tooltip = {
			tooltip = tooltip_has_enchantment_3
				has_ruler_flag = enchantment_3
			}
		}
		effect = {
			country_event = { id = seinathil.18 } 
		}
	}
}

seinathil_missions_column_5 = {
	slot = 5
	generic = no
	ai = yes
	potential = {
		tag = A90
	}
	has_country_shield = yes
	
	seinathil_bards_north = {
		icon = mission_rb_conquer_the_isles
		required_missions {
			seinathil_new_allies
		}
		position = 2
		
		provinces_to_highlight = {
			owner = { religion = skaldhyrric_faith }
			is_capital = yes
		}
		
		trigger = {
			any_known_country = {
				religion = skaldhyrric_faith
				has_opinion = {
					who = ROOT
					value = 100
				}
			}
		}
		effect = {
			custom_tooltip = seinathil_bards_north.tt
			random_known_country = {
				limit = {
					religion = skaldhyrric_faith
					has_opinion = {
						who = ROOT
						value = 100
					}
				}
				country_event = { id = seinathil.3 } 
			}
		}
	}
	
	seinathil_skald_allies = {
		icon = mission_viking
		required_missions {
			seinathil_bards_north
		}
		position = 3
		
		provinces_to_highlight = {
			owner = { religion = skaldhyrric_faith }
			is_capital = yes
		}
		
		trigger = {
			any_ally = {
				religion = skaldhyrric_faith
				trust = {
					who = ROOT
					value = 80
				}
			}
		}
		
		effect = {
			custom_tooltip = seinathil_skald_allies.tt
			random_known_country = {
				limit = {
					religion = skaldhyrric_faith
					trust = {
						who = ROOT
						value = 80
					}
				}
				set_country_flag = A90_bardic_ally
			}
		}
	}
	
	seinathil_skaldic_teachings = {
		icon = bibliotheca_corviana
		required_missions {
			seinathil_modernize_college
			seinathil_skald_allies
		}
		position = 9
		
		provinces_to_highlight = {
			owner = { religion = skaldhyrric_faith }
			is_capital = yes
		}
		
		trigger = {
			any_ally = {
				religion = skaldhyrric_faith
			}
		}
		
		effect = {
			custom_tooltip = seinathil_skaldic_teachings.tt
			set_country_flag = seinathil_skaldic_teachings
		}
	}
}
