
country_decisions = {
	decision_seghdihr_incursions_info = {
		major = yes
	
		potential = {
			tag = H78
			has_country_flag = seghdihr_incursions_scouted
		}

		allow = {
			always = yes
		}
	
		effect = {
			custom_tooltip = decision_seghdihr_incursions_info_tooltip
			hidden_effect = { seghdihr_calculate_incursion_strength = yes }
		}
	}
	decision_sgc_management = {
		major = yes
		
		potential = {
			tag = H78
			has_country_flag = sgc_created
		}

		allow = {
			num_of_merchants = 1
			hidden_trigger = {
				OR = {
					NOT = { has_country_flag = sgc_menu_opened }
					had_country_flag = {	#incase flag didn't clear
						flag = sgc_menu_opened
						days = 365
					}
				}
			}
		}

		effect = {
			set_country_flag = sgc_menu_opened
			hidden_effect = { country_event = { id = flavor_seghdihr.100 } }
		}
	}
}