

namespace = reveria

###########

#Reaver_reunion option 1 is reclaiming revrland, option 2 is being polite
country_event = {
	id = reveria.1
	title = reveria.1.t
	desc = reveria.1.d
	picture = DIPLOMACY_eventPicture
	
	is_triggered_only = yes
	
	immediate = {
	hidden_effect = {
	add_country_modifier = {
		name= "reveria_recently_attended_feast"
		duration = 365
		}
	Z10 = {
	add_country_modifier = {
		name= "reveria_recently_attended_feast"
		duration = 365
	}}
	Z11 = {
	add_country_modifier = {
		name= "reveria_recently_attended_feast"
		duration = 365
	}}
	Z09 = {
	add_country_modifier = {
		name= "reveria_recently_attended_feast"
		duration = 365
	}}
	Z13 = {
	add_country_modifier = {
		name= "reveria_recently_attended_feast"
		duration = 365
	}}
	Z14 = {
	add_country_modifier = {
		name= "reveria_recently_attended_feast"
		duration = 365
	}}
	Z12 = {
	add_country_modifier = {
		name= "reveria_recently_attended_feast"
		duration = 365
	}}
	Z15 = {
	add_country_modifier = {
		name= "reveria_recently_attended_feast"
		duration = 365
	}}
	}
	}
	option = {
		name = reveria.1.a
		ai_chance = { factor = 90 }
		959 = {
		add_core = ROOT
		}
		960 = {
		add_core = ROOT
		}
		997 = {
		add_core = ROOT
		}
		993 = {
		add_core = ROOT
		}
		add_prestige = -20
		add_country_modifier = {
		name= "reveria_disrespects_host"
		duration = 3650
		}
		reverse_add_opinion = {
			who = Z08
			modifier = reveria_awful_guest
		}
		if = {
				limit = {
					exists = Z13
					Z13 = {
					owns = 985
					}
				}
				country_event = { id = reveria.2 }
			}
				Z08 = { country_event = { id = reveria.26 } }
		
	}
	option = {
		name = reveria.1.b
		ai_chance = { factor = 10 }
		reverse_add_opinion = {
			who = Z08
			modifier = reveria_polite_guest
		}
		add_trust = {
		who = Z08
		value = 10
		mutual = yes
		}
		

		if = {
				limit = {
					exists = Z13
					Z13 = {
					owns = 985
					}
				}
				country_event = { id = reveria.2 }
			}
	}
}

#Reaver_reunion2 option 1 is challenging the owner of Giant's Manse to a holmgang on his island, option 2 is being chill
country_event = {
	id = reveria.2
	title = reveria.2.t
	desc = reveria.2.d
	picture = DEBATE_REPUBLICAN_eventPicture
	
	is_triggered_only = yes
	
	option = {
		name = reveria.2.a
		ai_chance = { factor = 50 }
		add_prestige = 10
		Z13 = {country_event = { id = reveria.27  } }
	}
	option = {
		name = reveria.2.b
		ai_chance = { factor = 50 }
		reverse_add_opinion = {
			who = Z08
			modifier = reveria_ease_tension
		}
		add_prestige = -10
	}
}

#Reaver_reunion3 this is the actual duel
country_event = {
	id = reveria.3
	title = reveria.3.t
	desc = reveria.3.d
	picture = CIVIL_WAR_eventPicture
	
	is_triggered_only = yes
	
	option = {
		name = reveria.3.a
		ai_chance = {
			factor = 100 }
		custom_tooltip = lets_fight_tooltip
		hidden_effect = {
			random_list = {
    50 = {
        modifier = {
            factor = 0.5
            NOT = { MIL = 1 }

        }
        modifier = {
            factor = 0.5
            NOT = { MIL = 2 }

        }
        modifier = {
            factor = 0.5
            NOT = { MIL = 3 }

        }
        
        modifier = {
            factor = 1.5
            MIL = 4

        }
        modifier = {
            factor = 1.5
            MIL = 5

        }
        modifier = {
            factor = 1.5
            MIL = 6

        }
        country_event = { id = reveria.5 }	# Fight won
        #You win
    }
    50 = {
        modifier = {
            factor = 0.5
            Z13 = { NOT = { MIL = 1 } } 

        }
        modifier = {
            factor = 0.5
            Z13 = { NOT = { MIL = 2 } }

        }
        modifier = {
            factor = 0.5
            Z13 = { NOT = { MIL = 3 } }

        }
        
        modifier = {
            factor = 1.5
            Z13 = { MIL = 4 }

        }
        modifier = {
            factor = 1.5
            Z13 = { MIL = 5 }

        }
        modifier = {
            factor = 1.5
            Z13 = { MIL = 6 }

        }
		Z13 = {country_event = { id = reveria.4  } } # Fight lost
        #enemy win
    }
}
		}
	}
}

#Reaver_reunion4 reveria loses and redgarhavn decides his fate
country_event = {
	id = reveria.4
	title = reveria.4.t
	desc = reveria.4.d
	picture = KING_CHOICE_eventPicture
	
	is_triggered_only = yes

	option = {
		name = reveria.4.a
		ai_chance = { factor = 50 }
		add_power_projection = {
                type = mission_rewards_power_projection
                amount = 20
            }
			A05 = {country_event = { id = reveria.29  } }
		}
	
	option = {
		name = reveria.4.b
		ai_chance = { factor = 50 }
		add_prestige = 30
		add_stability = 1
		A05 = {country_event = { id = reveria.30  } }
		}
}

#Reaver_reunion5 reveria wins and gets to choose between a: taking the island and sparing the ruler, b: killing the redgarhavn ruler, c: humiliating him
country_event = {
	id = reveria.5
	title = reveria.5.t
	desc = reveria.5.d
	picture = KING_CHOICE_eventPicture
	
	is_triggered_only = yes
	
	option = {
		name = reveria.5.a
		ai_chance = { factor = 60 }
		985 = { 
		cede_province = A05
		}
		add_prestige = 5
		Z13 = {country_event = { id = reveria.32  } }
	}
	
	
	option = {
		name = reveria.5.b
		ai_chance = { factor = 20 }
		Z13 = {
		kill_ruler = yes
		}
		reverse_add_casus_belli = {
		target = Z13
		type = 	cb_insult
		months = 12
		}
		add_power_projection = {
                type = mission_rewards_power_projection
                amount = 20
            }
			Z13 = {country_event = { id = reveria.33  } }
		}
	
	option = {
		name = reveria.5.c
		ai_chance = { factor = 20 }
		add_prestige = 30
		add_legitimacy = 20
		add_stability = 1
		Z13 = {country_event = { id = reveria.31  } }
		}
}

#Ancient Skald Stories, Reveria hosts a feast and the skalds from Gerudia tell of ancient tales, crowns and bloodlines
country_event = {
	id = reveria.6
	title = reveria.6.t
	desc = reveria.6.d
	picture = KING_DOING_GREAT_eventPicture

	is_triggered_only = yes

	immediate = {
	hidden_effect = {
	add_country_modifier = {
		name= "reveria_recently_hosted_feast"
		duration = 3650
		}
	Z10 = {
	add_country_modifier = {
		name= "reveria_recently_attended_feast"
		duration = 365
	}}
	Z11 = {
	add_country_modifier = {
		name= "reveria_recently_attended_feast"
		duration = 365
	}}
	Z09 = {
	add_country_modifier = {
		name= "reveria_recently_attended_feast"
		duration = 365
	}}
	Z13 = {
	add_country_modifier = {
		name= "reveria_recently_attended_feast"
		duration = 365
	}}
	Z14 = {
	add_country_modifier = {
		name= "reveria_recently_attended_feast"
		duration = 365
	}}
	Z12 = {
	add_country_modifier = {
		name= "reveria_recently_attended_feast"
		duration = 365
	}}
	Z15 = {
	add_country_modifier = {
		name= "reveria_recently_attended_feast"
		duration = 365
	}}
	Z08 = {
	add_country_modifier = {
		name= "reveria_recently_attended_feast"
		duration = 365
	}}
	}
	}
	option = {
		name = reveria.6.a
		ai_chance = { 
			factor = 100 
		}
		increase_ruler_dip_effect = yes
		add_prestige = 20
	}
}
#Dome_lost
country_event = {
	id = reveria.7
	title = reveria.7.t
	desc = reveria.7.d
	picture = BAD_WITH_MONARCH_eventPicture
	
	is_triggered_only = yes
	
	
	
		option = {
		name = reveria.7.a
		ai_chance = { 
			factor = 100 
		}
		add_stability = -1
	}
	}	
#Research_Reaver_Bloodlines, reveria sends a research party to Gerudia to find out how a reverian crown should look like and how the ancient reaver bloodlines flow
country_event = {
	id = reveria.8
	title = reveria.8.t
	desc = reveria.8.d
	picture = BIG_BOOK_eventPicture
	
	is_triggered_only = yes
	
	option = {
	name = reveria.8.a
		ai_chance = { 
			factor = 100 
		}	
			add_prestige = 10
			add_legitimacy = 40
	IF = { limit = { exists = A02}		
	reverse_add_opinion = {
    who = A02
    modifier = reveria_researched_bloodlines
			}
	A02 = { add_legitimacy = 10 add_prestige = 5 }}
	IF = { limit = { exists = A11} 
	reverse_add_opinion = {
    who = A11
    modifier = reveria_researched_bloodlines
	}
	A11 = { add_legitimacy = 10 add_prestige = 5 }}
	country_event = { id = reveria.38 days = 31 }
	}
}	
#Reverian_Crown, reveria contacts some experienced craftsmen and has a crown made according to the descriptions of the skalds
country_event = {
	id = reveria.9
	title = reveria.9.t
	desc = reveria.9.d
	picture = BAD_WITH_MONARCH_eventPicture
	
	is_triggered_only = yes
	
	option = {
		name = reveria.9.a
		ai_chance = { 
			factor = 100 
		}	
		
		add_treasury = -200
		add_country_modifier = {
			name= "reveria_crown1"
			duration = -1
			
		}	
		increase_ruler_dip_effect = yes
	}
}	
#New_small_friends, reveria offers vital support to the fledgling state of New Shire and they draft border agreements
country_event = {
	id = reveria.10
	title = reveria.10.t
	desc = reveria.10.d
	picture = DIPLOMACY_eventPicture
	
	is_triggered_only = yes
	
	option = {
	name = reveria.10.a
		ai_chance = { 
			factor = 100 
		}
		trigger = {
		A05 = { owns_core_province = 144 owns_core_province = 141 }
		}
			141 = {
    cede_province = A97
			}
			144 = {
    cede_province = A97
			}
		add_trust = {
    who = A97
    value = 50
    mutual = yes
	}
	add_historical_friend = A97
	A97 = { add_historical_friend = A05}
	capital_scope = { 
		add_base_tax = 3
		add_base_production = 3
		add_base_manpower = 3
	}
	A97 = { country_event = { id = reveria.34 }
	144 = {
    add_core = A97
	}
	141 = {
    add_core = A97
	}
	144 = {
    remove_core = A05
	}
	141 = {
    remove_core = A05
	}
	}
	}
	
		
	option = {
	name = reveria.10.b
		ai_chance = { 
			factor = 100 
		}
		trigger = {
		A05 = { owns_core_province = 144 owns_core_province = 141 }
		}
		add_treasury = -300
		A97 = { add_treasury = 200}
		141 = {
		change_culture = reverian
		add_base_tax = -1
		add_base_production = -1
		add_base_manpower = -1
		}
		144 = {
		change_culture = reverian
		add_base_tax = -1
		add_base_production = -1
		add_base_manpower = -1
		}
		A97 = { capital_scope = { add_base_tax = 2
		add_base_production = 2
		add_base_manpower = 2
		}}
		add_historical_friend = A97
		A97 = { add_historical_friend = A05}
		add_trust = {
    who = A97
    value = 10
    mutual = yes
	}
	A97 = { country_event = { id = reveria.35 }
	}
	}
	option = {
	name = reveria.10.c
		ai_chance = { 
			factor = 5 
		}
		trigger = {
				OR = {  
					NOT ={
                        owns_core_province = 144}
					NOT ={
                        owns_core_province = 141}
                }
        }
		add_historical_friend = A97
		A97 = { add_historical_friend = A05}
	}
	}
#Gnomes_in_the_administration, integrating gnomes in the reverian administration, which adds the Artificer estate
country_event = {
	id = reveria.11
	title = reveria.11.t
	desc = reveria.11.d
	picture = ECONOMY_eventPicture

	is_triggered_only = yes
	
	option = {
	name = reveria.11.a
		ai_chance = { 
			factor = 100 
		}
		set_country_flag = supporting_artificers
		custom_tooltip = supporting_artificers_tt
		change_innovativeness = 2
		add_estate_loyalty = {
			estate = estate_mages
			loyalty = -10
		}
		add_estate_loyalty = {
			estate = estate_burghers
			loyalty = -5
		}
		IF = {
			limit = { government = monarchy }

			country_event = { id = reveria.37 days = 35 }
		}
	}

}	
#A_new_capital1
country_event = {
	id = reveria.12
	title = reveria.12.t
	desc = reveria.12.d
	picture = COLONIZATION_eventPicture

	is_triggered_only = yes

	option = {
	name = reveria.12.a
		ai_chance = { 
			factor = 100 
		}
		177 = { add_province_modifier = { 
				name = reveria_preparing_new_capital
				duration = 3650
				
				
			}
			
		}
		add_adm_power = -20
	}
		
}
#A_new_capital2
country_event = {
	id = reveria.13
	title = reveria.13.t
	desc = reveria.13.d
	picture = CITY_DEVELOPMENT_eventPicture
	
	is_triggered_only = yes
	
	option = {
		name = reveria.13.a
		ai_chance = { 
			factor = 100 
		}
			set_capital = 177
		if = {
			limit = { ai = yes }
			177 = { change_culture = reverian add_base_production = 5 }
		}
		if = {
		limit = { owns_core_province = 138 }
		138 = { add_base_tax = -1 add_base_production = -1 add_base_manpower = -1 add_prosperity = -100 add_local_autonomy = 30 
				add_province_modifier =  { 
				name = reveria_mass_exodus
				duration = 3650 } }
		177 = { add_base_tax = 1 add_base_production = 1 add_base_manpower = 1 }
		}
		if = { 
		limit = { owns_core_province = 129 }
		129 = { add_base_tax = -1 add_base_production = -1 add_base_manpower = -1 add_prosperity = -100 add_local_autonomy = 30 
				add_province_modifier =  { 
				name = reveria_mass_exodus
				duration = 3650 } }
		177 = { add_base_tax = 1 add_base_production = 1 add_base_manpower = 1 }
		}
		if = { 
		limit = { owns_core_province = 142 }
		142 = { add_base_tax = -1 add_base_production = -1 add_base_manpower = -1 add_prosperity = -100 add_local_autonomy = 30 
				add_province_modifier =  { 
				name = reveria_mass_exodus
				duration = 3650 } }
		177 = { add_base_tax = 1 add_base_production = 1 add_base_manpower = 1 }
		}
		if = { 
		limit = { owns_core_province = 143 }
		143 = { add_base_tax = -1 add_base_production = -1 add_base_manpower = -1 add_prosperity = -100 add_local_autonomy = 30 
				add_province_modifier =  { 
				name = reveria_mass_exodus
				duration = 3650 } }
		177 = { add_base_tax = 1 add_base_production = 1 add_base_manpower = 1 }
		}
		if = { 
		limit = { owns_core_province = 140 }
		140 = { add_base_tax = -1 add_base_production = -1 add_base_manpower = -1 add_prosperity = -100 add_local_autonomy = 30 
				add_province_modifier =  { 
				name = reveria_mass_exodus
				duration = 3650 } }
		177 = { add_base_tax = 1 add_base_production = 1 add_base_manpower = 1 }
		}
		if = { 
		limit = { owns_core_province = 122 }
		122 = { add_base_tax = -1 add_base_production = -1 add_base_manpower = -1 add_prosperity = -100 add_local_autonomy = 30 
				add_province_modifier =  { 
				name = reveria_mass_exodus
				duration = 3650 } }
		177 = { add_base_tax = 1 add_base_production = 1 add_base_manpower = 1 }
		}
		add_adm_power = -100
		add_treasury = -100
	}
}
#Gnomish_resettlers for all 16 provinces it checks if it is owned by reveria, if not, it skips the province, if it is owned by reveria it adds -1 dev to 169 and then checks if the culture is reverian, if so, it adds a gnomish minority, if not, it makes the province gnomish
country_event = {
	id = reveria.14
	title = reveria.14.t
	desc = reveria.14.d
	picture = VILLAGE_BURNING_eventPicture
	
	is_triggered_only = yes
	
	option = {
	name = reveria.14.a
		ai_chance = { 
			factor = 100 
		}
		if = { 
			limit = { owns_core_province = 167 }
			if = {
					limit = {167 = { culture = ROOT }}
		
					167 = { add_gnomish_minority_size_effect = yes } 
							
			}
			else = { 167 = { change_culture = cliff_gnome change_religion = the_thought add_human_minority_size_effect = yes}
							}
						169 = { add_base_manpower = -1 }
						167 = { add_base_manpower = 1 }
				
		}
		
		if = { 
			limit = { owns_core_province = 170 }
			if = {
					limit = {170 = { culture = ROOT }}
		
					170 = { add_gnomish_minority_size_effect = yes } 
							
			}
			else = { 170 = { change_culture = cliff_gnome change_religion = the_thought add_human_minority_size_effect = yes}
							}
						169 = { add_base_tax = -1 }
						170 = { add_base_tax = 1 }
				
		}
		
		if = { 
			limit = { owns_core_province = 177 }
			if = {
					limit = {177 = { culture = ROOT }}
		
					177 = { add_gnomish_minority_size_effect = yes } 
							
			}
			else = { 177 = { change_culture = cliff_gnome change_religion = the_thought add_human_minority_size_effect = yes}
							}
						169 = { add_base_production = -1 }
						177 = { add_base_production = 1 }
				
		}
		
		if = { 
			limit = { owns_core_province = 171 }
			if = {
					limit = {171 = { culture = ROOT }}
		
					171 = { add_gnomish_minority_size_effect = yes } 
							
			}
			else = { 171 = { change_culture = cliff_gnome change_religion = the_thought add_human_minority_size_effect = yes}
							}
						169 = { add_base_tax = -1 }
						171 = { add_base_tax = 1 }
				
		}
		
		if = { 
			limit = { owns_core_province = 181 }
			if = {
					limit = {181 = { culture = ROOT }}
		
					181 = { add_gnomish_minority_size_effect = yes } 
							
			}
			else = { 181 = { change_culture = cliff_gnome change_religion = the_thought add_human_minority_size_effect = yes}
							}
						169 = { add_base_production = -1 }
						181 = { add_base_production = 1 }
				
		}
		
		if = { 
			limit = { owns_core_province = 172 }
			if = {
					limit = {172 = { culture = ROOT }}
		
					172 = { add_gnomish_minority_size_effect = yes } 
							
			}
			else = { 172 = { change_culture = cliff_gnome change_religion = the_thought add_human_minority_size_effect = yes}
							}
						169 = { add_base_tax = -1 }
						172 = { add_base_tax = 1 }
				
		}
		
		if = { 
			limit = { owns_core_province = 173 }
			if = {
					limit = {173 = { culture = ROOT }}
		
					173 = { add_gnomish_minority_size_effect = yes } 
							
			}
			else = { 173 = { change_culture = cliff_gnome change_religion = the_thought add_human_minority_size_effect = yes}
							}
						169 = { add_base_tax = -1 }
						173 = { add_base_tax = 1 }
				
		}
		
		if = { 
			limit = { owns_core_province = 174 }
			if = {
					limit = {174 = { culture = ROOT }}
		
					174 = { add_gnomish_minority_size_effect = yes } 
							
			}
			else = { 174 = { change_culture = cliff_gnome change_religion = the_thought add_human_minority_size_effect = yes}
							}
						169 = { add_base_production = -1 }
						174 = { add_base_production = 1 }
				
		}
		
		if = { 
			limit = { owns_core_province = 183 }
			if = {
					limit = {183 = { culture = ROOT }}
		
					183 = { add_gnomish_minority_size_effect = yes } 
							
			}
			else = { 183 = { change_culture = cliff_gnome change_religion = the_thought add_human_minority_size_effect = yes}
							}
						169 = { add_base_production = -1 }
						183 = { add_base_production = 1 }
				
		}
		
		if = { 
			limit = { owns_core_province = 184 }
			if = {
					limit = {184 = { culture = ROOT }}
		
					184 = { add_gnomish_minority_size_effect = yes } 
							
			}
			else = { 184 = { change_culture = cliff_gnome change_religion = the_thought add_human_minority_size_effect = yes}
							}
						169 = { add_base_manpower = -1 }
						184 = { add_base_manpower = 1 }
				
		}
		
		if = { 
			limit = { owns_core_province = 182 }
			if = {
					limit = {182 = { culture = ROOT }}
		
					182 = { add_gnomish_minority_size_effect = yes } 
							
			}
			else = { 182 = { change_culture = cliff_gnome change_religion = the_thought add_human_minority_size_effect = yes}
							}
						169 = { add_base_tax = -1 }
						182 = { add_base_tax = 1 }
				
		}
		
		if = { 
			limit = { owns_core_province = 180 }
			if = {
					limit = {180 = { culture = ROOT }}
		
					180 = { add_gnomish_minority_size_effect = yes } 
							
			}
			else = { 180 = { change_culture = cliff_gnome change_religion = the_thought add_human_minority_size_effect = yes}
							}
						169 = { add_base_tax = -1 }
						180 = { add_base_tax = 1 }
				
		}
		
		if = { 
			limit = { owns_core_province = 179 }
			if = {
					limit = {179 = { culture = ROOT }}
		
					179 = { add_gnomish_minority_size_effect = yes } 
							
			}
			else = { 179 = { change_culture = cliff_gnome change_religion = the_thought add_human_minority_size_effect = yes}
							}
						169 = { add_base_tax = -1 }
						179 = { add_base_tax = 1 }
				
		}
		
		if = { 
			limit = { owns_core_province = 178 }
			if = {
					limit = {178 = { culture = ROOT }}
		
					178 = { add_gnomish_minority_size_effect = yes } 
							
			}
			else = { 178 = { change_culture = cliff_gnome change_religion = the_thought add_human_minority_size_effect = yes}
							}
						169 = { add_base_production = -1 }
						178 = { add_base_production = 1 }
				
		}
		
		if = { 
			limit = { owns_core_province = 176 }
			if = {
					limit = {176 = { culture = ROOT }}
		
					176 = { add_gnomish_minority_size_effect = yes } 
							
			}
			else = { 176 = { change_culture = cliff_gnome change_religion = the_thought add_human_minority_size_effect = yes}
							}
						169 = { add_base_production = -1 }
						176 = { add_base_production = 1 }
				
		}
		
		if = { 
			limit = { owns_core_province = 175 }
			if = {
					limit = {175 = { culture = ROOT }}
		
					175 = { add_gnomish_minority_size_effect = yes } 
							
			}
			else = { 175 = { change_culture = cliff_gnome change_religion = the_thought add_human_minority_size_effect = yes}
							}
						169 = { add_base_production = -1 }
						175 = { add_base_production = 1 }
				
		}
	}
		
}
#But_we_dont_have_darkvision the gnomes tell us they need more access to affordable gems to make drekiriki thrive, we should conquer the kobold caves, even if we cant see anything in there
country_event = {
	id = reveria.15
	title = reveria.15.t
	desc = reveria.15.d
	picture = CAVE_eventPicture
	
	is_triggered_only = yes
	
	option = {
	name = reveria.15.a
		ai_chance = { 
			factor = 100 
		}
			dragonheights_area = {
				limit = {
					NOT = { is_core = ROOT }
					NOT = { is_permanent_claim = ROOT }
				}
				add_permanent_claim = ROOT
				}
			dragondepth_area = {
				limit = {
					NOT = { is_core = ROOT }
					NOT = { is_permanent_claim = ROOT }
				}
				add_permanent_claim = ROOT
				}
	}		
}
#Gnomish_gift, the gnomes suprise the ruler of reveria with a gift, for all his hard effort at making the gnomes within his realm a prosperous people
country_event = {
	id = reveria.16
	title = reveria.16.t
	desc = reveria.16.d
	picture = INVENTION_eventPicture
	
	is_triggered_only = yes
	
	option = {
	name = reveria.16.a
		ai_chance = { 
			factor = 100 
		}
		increase_ruler_adm_effect = yes
		add_estate_loyalty_modifier = {
			estate = estate_artificers
			desc = reveria_gnomes_satisfied
			loyalty = 10
			duration = -1
		}
		add_country_modifier = {
			name= "reveria_gnomish_administrator_tools"
			duration = -1
		}
			
	}		
}
#First_ynnic_raid, reveria raids until the first dam, largely a failure
country_event = {
	id = reveria.17
	title = reveria.17.t
	desc = reveria.17.d
	picture = SHIP_SAILING_eventPicture
	
	is_triggered_only = yes
	
	option = {
	name = reveria.17.a
		ai_chance = { 
			factor = 100 
		}
		IF = {
			limit = { NOT = { owns_or_non_sovereign_subject_of = 2814 } }
			2814 = { 
				remove_loot = {
					who = ROOT
					amount = 100
				}
				add_devastation = 100
				add_prosperity = -20
				owner = {
					add_opinion = {
						who = ROOT
						modifier = reveria_raided
					}
				}
			}
		}
		IF = {
			limit = { NOT = { owns_or_non_sovereign_subject_of = 2862 }}
			2862 = { remove_loot = {
				who = ROOT
				amount = 100
			}
			add_devastation = 100
			add_prosperity = -20
				owner = {
					add_opinion = {
						who = ROOT
						modifier = reveria_raided
					}
				}
			}
		}
		add_manpower = -0.5
		add_treasury = 50
		trojvare_area = {
			limit = {
				NOT = { is_core = ROOT }
				NOT = { owned_by = ROOT }
			}
			add_permanent_claim = ROOT
		}
		1165 = {
			if = {
				limit = {
					NOT = { is_core = ROOT }
					NOT = { owned_by = ROOT }	
				}
			}
			add_permanent_claim = ROOT
		}
	}
}
#Second_ynnic_raid, reveria raids until the Macbarja and Vels Bacar dams, a huge success
country_event = {
	id = reveria.18
	title = reveria.18.t
	desc = reveria.18.d
	picture = SHIP_SAILING_eventPicture
	
	is_triggered_only = yes
	
	option = {
	name = reveria.18.a
		ai_chance = { 
			factor = 100 
		}
			add_manpower = -1.3
			add_treasury = 500
		IF = {
			limit = { NOT = { owns_or_non_sovereign_subject_of = 2837 }}
			2837 = { remove_loot = {
				who = ROOT
				amount = 100
			}
			add_devastation = 100
			add_prosperity = -20
				owner = {add_opinion = {
				who = ROOT
				modifier = reveria_raided
				}}
			}
		
		}
		IF = {
			limit = { NOT = { owns_or_non_sovereign_subject_of = 2811 }}
			2811 = { remove_loot = {
				who = ROOT
				amount = 100
			}
			add_devastation = 100
			add_prosperity = -20
				owner = {add_opinion = {
				who = ROOT
				modifier = reveria_raided
				}}
			}
			
		}
		IF = {
			limit = { NOT = { owns_or_non_sovereign_subject_of = 1166 }}
			1166 = { remove_loot = {
				who = ROOT
				amount = 100
			}
			add_devastation = 100
			add_prosperity = -20
				owner = {add_opinion = {
				who = ROOT
				modifier = reveria_raided
				}}
			}
			
		}
		IF = {
			limit = { NOT = { owns_or_non_sovereign_subject_of = 1878 }}
			1878 = { remove_loot = {
				who = ROOT
				amount = 100
			}
			add_devastation = 100
			add_prosperity = -20
				owner = {add_opinion = {
				who = ROOT
				modifier = reveria_raided
				}}
			}
			
		}
		IF = {
			limit = { NOT = { owns_or_non_sovereign_subject_of = 1140 }}
			1140 = { remove_loot = {
				who = ROOT
				amount = 100
			}
			add_devastation = 100
			add_prosperity = -20
				owner = {add_opinion = {
				who = ROOT
				modifier = reveria_raided
				}}
			}
			
		}
		IF = {
			limit = { NOT = { owns_or_non_sovereign_subject_of = 1821 }}
			1821 = { remove_loot = {
				who = ROOT
				amount = 100
			}
			add_devastation = 100
			add_prosperity = -20
				owner = {add_opinion = {
				who = ROOT
				modifier = reveria_raided
				}}
			}
			
		}
		IF = {
			limit = { NOT = { owns_or_non_sovereign_subject_of = 1139 }}
			1139 = { remove_loot = {
				who = ROOT
				amount = 100
			}
			add_devastation = 100
			add_prosperity = -20
				owner = {add_opinion = {
				who = ROOT
				modifier = reveria_raided
				}}
			}
			
		}
		IF = {
			limit = { NOT = { owns_or_non_sovereign_subject_of = 1141 }}
			1141 = { remove_loot = {
				who = ROOT
				amount = 100
			}
			add_devastation = 100
			add_prosperity = -20
				owner = {add_opinion = {
				who = ROOT
				modifier = reveria_raided
				}}
			}
			
		}
		IF = {
			limit = { NOT = { owns_or_non_sovereign_subject_of = 2810 }}
			2810 = { remove_loot = {
				who = ROOT
				amount = 100
			}
			add_devastation = 100
			add_prosperity = -20
				owner = {add_opinion = {
				who = ROOT
				modifier = reveria_raided
				}}
			}
			
		}
		IF = {
			limit = { NOT = { owns_or_non_sovereign_subject_of = 1148 }}
			1148 = { remove_loot = {
				who = ROOT
				amount = 100
			}
			add_devastation = 100
			add_prosperity = -20
				owner = {add_opinion = {
				who = ROOT
				modifier = reveria_raided
				}}
			}
			
		}
		IF = {
			limit = { NOT = { owns_or_non_sovereign_subject_of = 1820 }}
			1820 = { remove_loot = {
				who = ROOT
				amount = 100
			}
			add_devastation = 100
			add_prosperity = -20
				owner = {add_opinion = {
				who = ROOT
				modifier = reveria_raided
				}}
			}
			
		}
		IF = {
			limit = { NOT = { owns_or_non_sovereign_subject_of = 2813 }}
			2813 = { remove_loot = {
				who = ROOT
				amount = 100
			}
			add_devastation = 100
			add_prosperity = -20
				owner = {add_opinion = {
				who = ROOT
				modifier = reveria_raided
				}}
			}
			
		}
		IF = {
			limit = { NOT = { owns_or_non_sovereign_subject_of = 1819 }}
			1819 = { remove_loot = {
				who = ROOT
				amount = 100
			}
			add_devastation = 100
			add_prosperity = -20
				owner = {add_opinion = {
				who = ROOT
				modifier = reveria_raided
				}}
			}
			
		}
		IF = {
			limit = { NOT = { owns_or_non_sovereign_subject_of = 2812 }}
			2812 = { remove_loot = {
				who = ROOT
				amount = 100
			}
			add_devastation = 100
			add_prosperity = -20
				owner = {add_opinion = {
				who = ROOT
				modifier = reveria_raided
				}}
			}
			
		}
		IF = {
			limit = { NOT = { owns_or_non_sovereign_subject_of = 2809 }}
			2809 = { remove_loot = {
				who = ROOT
				amount = 100
			}
			add_devastation = 100
			add_prosperity = -20
				owner = {add_opinion = {
				who = ROOT
				modifier = reveria_raided
				}}
			}
			
		}
		IF = {
			limit = { NOT = { owns_or_non_sovereign_subject_of = 1187 }}
			1187 = { remove_loot = {
				who = ROOT
				amount = 100
			}
			add_devastation = 100
			add_prosperity = -20
				owner = {add_opinion = {
				who = ROOT
				modifier = reveria_raided
				}}
			}
			
		}
		2837 = {
			if = {
				limit = {
					NOT = { is_core = ROOT }
					NOT = { owned_by = ROOT }	
				}
			}
			add_permanent_claim = ROOT
		}
		2781 = {
			if = {
				limit = {
					NOT = { is_core = ROOT }
					NOT = { owned_by = ROOT }	
				}
			}
			add_permanent_claim = ROOT
		}
		1140 = {
			if = {
				limit = {
					NOT = { is_core = ROOT }
					NOT = { owned_by = ROOT }	
				}
			}
			add_permanent_claim = ROOT
		}
		1138 = {
			if = {
				limit = {
					NOT = { is_core = ROOT }
					NOT = { owned_by = ROOT }	
				}
			}
			add_permanent_claim = ROOT
		}
		2808 = {
			if = {
				limit = {
					NOT = { is_core = ROOT }
					NOT = { owned_by = ROOT }	
				}
			}
			add_permanent_claim = ROOT
		}
		1168 = {
			if = {
				limit = {
					NOT = { is_core = ROOT }
					NOT = { owned_by = ROOT }	
				}
			}
			add_permanent_claim = ROOT
		}
		1186 = {
			if = {
				limit = {
					NOT = { is_core = ROOT }
					NOT = { owned_by = ROOT }	
				}
			}
			add_permanent_claim = ROOT
		}
	}
}
#Southern_ynnic_raid, reveria raids from the Vels Bacar dam till they can go no more, a huge success, spotting the Dome
country_event = {
	id = reveria.19
	title = reveria.19.t
	desc = reveria.19.d
	picture = SHIP_SAILING_eventPicture
	
	is_triggered_only = yes
	
	option = {
	name = reveria.19.a
		ai_chance = { 
			factor = 100 
		}
		add_manpower = -2
		add_treasury = 800
		IF = {
			limit = { NOT = { owns_or_non_sovereign_subject_of = 1822 }}
			1822 = { remove_loot = {
				who = ROOT
				amount = 100
			}
			add_devastation = 100
			add_prosperity = -20
				owner = {add_opinion = {
				who = ROOT
				modifier = reveria_raided
				}}
			}
			
		}
		IF = {
			limit = { NOT = { owns_or_non_sovereign_subject_of = 1825 }}
			1825 = { remove_loot = {
				who = ROOT
				amount = 100
			}
			add_devastation = 100
			add_prosperity = -20
				owner = {add_opinion = {
				who = ROOT
				modifier = reveria_raided
				}}
			}
			
		}
		IF = {
			limit = { NOT = { owns_or_non_sovereign_subject_of = 1137 }}
			1137 = { remove_loot = {
				who = ROOT
				amount = 100
			}
			add_devastation = 100
			add_prosperity = -20
				owner = {add_opinion = {
				who = ROOT
				modifier = reveria_raided
				}}
			}
			
		}
		IF = {
			limit = { NOT = { owns_or_non_sovereign_subject_of = 1826 }}
			1826 = { remove_loot = {
				who = ROOT
				amount = 100
			}
			add_devastation = 100
			add_prosperity = -20
				owner = {add_opinion = {
				who = ROOT
				modifier = reveria_raided
				}}
			}
			
		}
		IF = {
			limit = { NOT = { owns_or_non_sovereign_subject_of = 1136 }}
			1136 = { remove_loot = {
				who = ROOT
				amount = 100
			}
			add_devastation = 100
			add_prosperity = -20
				owner = {add_opinion = {
				who = ROOT
				modifier = reveria_raided
				}}
			}
			
		}
		IF = {
			limit = { NOT = { owns_or_non_sovereign_subject_of = 1142 }}
			1142 = { remove_loot = {
				who = ROOT
				amount = 100
			}
			add_devastation = 100
			add_prosperity = -20
				owner = {add_opinion = {
				who = ROOT
				modifier = reveria_raided
				}}
			}
			
		}
		IF = {
			limit = { NOT = { owns_or_non_sovereign_subject_of = 2859 }}
			2859 = { remove_loot = {
				who = ROOT
				amount = 100
			}
			add_devastation = 100
			add_prosperity = -20
				owner = {add_opinion = {
				who = ROOT
				modifier = reveria_raided
				}}
			}
			
		}
		IF = {
			limit = { NOT = { owns_or_non_sovereign_subject_of = 1143 }}
			1143 = { remove_loot = {
				who = ROOT
				amount = 100
			}
			add_devastation = 100
			add_prosperity = -20
				owner = {add_opinion = {
				who = ROOT
				modifier = reveria_raided
				}}
			}
			
		}
		IF = {
			limit = { NOT = { owns_or_non_sovereign_subject_of = 2858 }}
			2858 = { remove_loot = {
				who = ROOT
				amount = 100
			}
			add_devastation = 100
			add_prosperity = -20
				owner = {add_opinion = {
				who = ROOT
				modifier = reveria_raided
				}}
			}
			
		}
		IF = {
			limit = { NOT = { owns_or_non_sovereign_subject_of = 1827 }}
			1827 = { remove_loot = {
				who = ROOT
				amount = 100
			}
			add_devastation = 100
			add_prosperity = -20
				owner = {add_opinion = {
				who = ROOT
				modifier = reveria_raided
				}}
			}
			
		}
		IF = {
			limit = { NOT = { owns_or_non_sovereign_subject_of = 1135 }}
			1135 = { remove_loot = {
				who = ROOT
				amount = 100
			}
			add_devastation = 100
			add_prosperity = -20
				owner = {add_opinion = {
				who = ROOT
				modifier = reveria_raided
				}}
			}
			
		}
		IF = {
			limit = { NOT = { owns_or_non_sovereign_subject_of = 1877 }}
			1877 = { remove_loot = {
				who = ROOT
				amount = 100
			}
			add_devastation = 100
			add_prosperity = -20
				owner = {add_opinion = {
				who = ROOT
				modifier = reveria_raided
				}}
			}
			
		}
		IF = {
			limit = { NOT = { owns_or_non_sovereign_subject_of = 2860 }}
			2860 = { remove_loot = {
				who = ROOT
				amount = 100
			}
			add_devastation = 100
			add_prosperity = -20
				owner = {add_opinion = {
				who = ROOT
				modifier = reveria_raided
				}}
			}
			
		}
		IF = {
			limit = { NOT = { owns_or_non_sovereign_subject_of = 2860 }}
			2860 = { remove_loot = {
				who = ROOT
				amount = 100
			}
			add_devastation = 100
			add_prosperity = -20
				owner = {add_opinion = {
				who = ROOT
				modifier = reveria_raided
				}}
			}
			
		}
		IF = {
			limit = { NOT = { owns_or_non_sovereign_subject_of = 1134 }}
			1134 = { remove_loot = {
				who = ROOT
				amount = 100
			}
			add_devastation = 100
			add_prosperity = -20
				owner = {add_opinion = {
				who = ROOT
				modifier = reveria_raided
				}}
			}
			
		}
		2816 = {
			if = {
				limit = {
					NOT = { is_core = ROOT }
					NOT = { owned_by = ROOT }	
				}
				add_permanent_claim = ROOT
			}
		}
		1142 = {
			if = {
				limit = {
					NOT = { is_core = ROOT }
					NOT = { owned_by = ROOT }	
				}
				add_permanent_claim = ROOT
			}
		}
	}
}
#Northern_ynnic_raid, reveria raids from the Mocbarja dam till they can go no more, a minor sucess.
country_event = {
	id = reveria.20
	title = reveria.20.t
	desc = reveria.20.d
	picture = SHIP_SAILING_eventPicture
	
	is_triggered_only = yes
	
	option = {
	name = reveria.20.a
		ai_chance = { 
			factor = 100 
		}
			add_manpower = -0.8
			add_treasury = 200
		IF = {
		limit = { NOT = { owns_or_non_sovereign_subject_of = 1168 }}
		1168 = { remove_loot = {
			who = ROOT
			amount = 100
		}
		add_devastation = 100
		add_prosperity = -20
			owner = {add_opinion = {
			who = ROOT
			modifier = reveria_raided
			}}
		}
		
	}
		IF = {
		limit = { NOT = { owns_or_non_sovereign_subject_of = 1169 }}
		1169 = { remove_loot = {
			who = ROOT
			amount = 100
		}
		add_devastation = 100
		add_prosperity = -20
			owner = {add_opinion = {
			who = ROOT
			modifier = reveria_raided
			}}
		}
		
	}
		IF = {
		limit = { NOT = { owns_or_non_sovereign_subject_of = 2808 }}
		2808 = { remove_loot = {
			who = ROOT
			amount = 100
		}
		add_devastation = 100
		add_prosperity = -20
			owner = {add_opinion = {
			who = ROOT
			modifier = reveria_raided
			}}
		}
		
	}
		IF = {
		limit = { NOT = { owns_or_non_sovereign_subject_of = 1170 }}
		1170 = { remove_loot = {
			who = ROOT
			amount = 100
		}
		add_devastation = 100
		add_prosperity = -20
			owner = {add_opinion = {
			who = ROOT
			modifier = reveria_raided
			}}
		}
		
	}
		IF = {
		limit = { NOT = { owns_or_non_sovereign_subject_of = 1182 }}
		1182 = { remove_loot = {
			who = ROOT
			amount = 100
		}
		add_devastation = 100
		add_prosperity = -20
			owner = {add_opinion = {
			who = ROOT
			modifier = reveria_raided
			}}
		}
		
	}
		IF = {
		limit = { NOT = { owns_or_non_sovereign_subject_of = 1188 }}
		1188 = { remove_loot = {
			who = ROOT
			amount = 100
		}
		add_devastation = 100
		add_prosperity = -20
			owner = {add_opinion = {
			who = ROOT
			modifier = reveria_raided
			}}
		}
		
	}
		IF = {
		limit = { NOT = { owns_or_non_sovereign_subject_of = 1757 }}
		1757 = { remove_loot = {
			who = ROOT
			amount = 100
		}
		add_devastation = 100
		add_prosperity = -20
			owner = {add_opinion = {
			who = ROOT
			modifier = reveria_raided
			}}
		}
		
	}
		IF = {
		limit = { NOT = { owns_or_non_sovereign_subject_of = 1756 }}
		1756 = { remove_loot = {
			who = ROOT
			amount = 100
		}
		add_devastation = 100
		add_prosperity = -20
			owner = {add_opinion = {
			who = ROOT
			modifier = reveria_raided
			}}
		}
		
	}
		IF = {
		limit = { NOT = { owns_or_non_sovereign_subject_of = 1755 }}
		1755 = { remove_loot = {
			who = ROOT
			amount = 100
		}
		add_devastation = 100
		add_prosperity = -20
			owner = {add_opinion = {
			who = ROOT
			modifier = reveria_raided
			}}
		}
		
	}
		IF = {
		limit = { NOT = { owns_or_non_sovereign_subject_of = 1189 }}
		1189 = { remove_loot = {
			who = ROOT
			amount = 100
		}
		add_devastation = 100
		add_prosperity = -20
			owner = {add_opinion = {
			who = ROOT
			modifier = reveria_raided
			}}
		}
		
	}
		IF = {
		limit = { NOT = { owns_or_non_sovereign_subject_of = 1816 }}
		1816 = { remove_loot = {
			who = ROOT
			amount = 100
		}
		add_devastation = 100
		add_prosperity = -20
			owner = {add_opinion = {
			who = ROOT
			modifier = reveria_raided
			}}
		}
		
	}
		IF = {
		limit = { NOT = { owns_or_non_sovereign_subject_of = 1815 }}
		1815 = { remove_loot = {
			who = ROOT
			amount = 100
		}
		add_devastation = 100
		add_prosperity = -20
			owner = {add_opinion = {
			who = ROOT
			modifier = reveria_raided
			}}
		}
		
	}
		IF = {
		limit = { NOT = { owns_or_non_sovereign_subject_of = 2843 }}
		2843 = { remove_loot = {
			who = ROOT
			amount = 100
		}
		add_devastation = 100
		add_prosperity = -20
			owner = {add_opinion = {
			who = ROOT
			modifier = reveria_raided
			}}
		}
		
	}
		IF = {
		limit = { NOT = { owns_or_non_sovereign_subject_of = 1190 }}
		1190 = { remove_loot = {
			who = ROOT
			amount = 100
		}
		add_devastation = 100
		add_prosperity = -20
			owner = {add_opinion = {
			who = ROOT
			modifier = reveria_raided
			}}
		}
		
	}
		IF = {
		limit = { NOT = { owns_or_non_sovereign_subject_of = 1191 }}
		1191 = { remove_loot = {
			who = ROOT
			amount = 100
		}
		add_devastation = 100
		add_prosperity = -20
			owner = {add_opinion = {
			who = ROOT
			modifier = reveria_raided
			}}
		}
		
	}
		IF = {
		limit = { NOT = { owns_or_non_sovereign_subject_of = 1792 }}
		1792 = { remove_loot = {
			who = ROOT
			amount = 100
		}
		add_devastation = 100
		add_prosperity = -20
			owner = {add_opinion = {
			who = ROOT
			modifier = reveria_raided
			}}
		}
		
	}	
		IF = {
		limit = { NOT = { owns_or_non_sovereign_subject_of = 1193 }}
		1193 = { remove_loot = {
			who = ROOT
			amount = 100
		}
		add_devastation = 100
		add_prosperity = -20
			owner = {add_opinion = {
			who = ROOT
			modifier = reveria_raided
			}}
		}
		
	}
		IF = {
		limit = { NOT = { owns_or_non_sovereign_subject_of = 1194 }}
		1194 = { remove_loot = {
			who = ROOT
			amount = 100
		}
		add_devastation = 100
		add_prosperity = -20
			owner = {add_opinion = {
			who = ROOT
			modifier = reveria_raided
			}}
		}
		
	}
		IF = {
		limit = { NOT = { owns_or_non_sovereign_subject_of = 1766 }}
		1766 = { remove_loot = {
			who = ROOT
			amount = 100
		}
		add_devastation = 100
		add_prosperity = -20
			owner = {add_opinion = {
			who = ROOT
			modifier = reveria_raided
			}}
		}
		
	}
		IF = {
		limit = { NOT = { owns_or_non_sovereign_subject_of = 1192 }}
		1192 = { remove_loot = {
			who = ROOT
			amount = 100
		}
		add_devastation = 100
		add_prosperity = -20
			owner = {add_opinion = {
			who = ROOT
			modifier = reveria_raided
			}}
		}
		
	}
		IF = {
		limit = { NOT = { owns_or_non_sovereign_subject_of = 1758 }}
		1758 = { remove_loot = {
			who = ROOT
			amount = 100
		}
		add_devastation = 100
		add_prosperity = -20
			owner = {add_opinion = {
			who = ROOT
			modifier = reveria_raided
			}}
		}
		
	}
	country_event = { id = reveria.21 }
	}
}
#The_last_dragon_of_aelantir, the ynnic reavers are on the way back to base when they are attacked by a dragon, which scorches a portion of the crew and treasure
country_event = {
	id = reveria.21
	title = reveria.21.t
	desc = reveria.21.d
	picture = COMET_SIGHTED_eventPicture
	
	is_triggered_only = yes

	option = {
		name = reveria.21.a
		ai_chance = { factor = 50 }
		add_treasury = -110
		add_manpower = -0.3
			pomvasonn_area = {
				limit = {
					NOT = { is_core = ROOT }
					NOT = { is_permanent_claim = ROOT }
				}
				add_permanent_claim = ROOT
				}
			svemel_area = {
				limit = {
					NOT = { is_core = ROOT }
					NOT = { is_permanent_claim = ROOT }
				}
				add_permanent_claim = ROOT
				}
	}
	option = {
		name = reveria.21.b
		ai_chance = { factor = 50 }
		add_treasury = -50
		add_manpower = -1.4
			pomvasonn_area = {
				limit = {
					NOT = { is_core = ROOT }
					NOT = { is_permanent_claim = ROOT }
				}
				add_permanent_claim = ROOT
				}
			svemel_area = {
				limit = {
					NOT = { is_core = ROOT }
					NOT = { is_permanent_claim = ROOT }
				}
				add_permanent_claim = ROOT
				}
	}
}
#Dragonsearch, the reavers search the areas temples, mountains, caves and forests for the dragon or signs and documentation of it, but find no dragon, only some dragon related trinkets
country_event = {
	id = reveria.22
	title = reveria.22.t
	desc = reveria.22.d
	picture = BORDER_TENSION_eventPicture
	
	is_triggered_only = yes

	option = {
		name = reveria.22.a
		ai_chance = { factor = 50 }
		add_treasury = 200
	}
	option = {
		name = reveria.22.b
		ai_chance = { factor = 50 }
		add_prestige = 20
	}
}
#Fate_of_the_dome
country_event = {
	id = reveria.23
	title = reveria.23.t
	desc = reveria.23.d
	picture = ARTWORK_eventPicture
	
	is_triggered_only = yes

	option = {
		trigger = {
		ruler_has_mage_personality = yes OR = { has_ruler_flag = conjuration_2 has_ruler_flag = conjuration_3 } 
		}
		
		name = reveria.23.a
		ai_chance = { factor = 100 }
		country_event = { id = reveria.24 }
		add_prestige = 20
	}
	option = {
		trigger = { has_estate = estate_artificers
		estate_loyalty = {
		estate = estate_artificers
		loyalty = 40
		}
		estate_influence = {
		estate = estate_artificers
		influence = 50
		}
		}
		name = reveria.23.b
		ai_chance = { factor = 99 }
		add_treasury = -150
		country_event = { id = reveria.24 }
	}
	option = {
		trigger = { owns_or_non_sovereign_subject_of = 1028 owns_or_non_sovereign_subject_of = 1873 owns_or_non_sovereign_subject_of = 1031 owns_or_non_sovereign_subject_of = 1133 }
		name = reveria.23.c
		ai_chance = { factor = 99 }
		add_treasury = -50
		country_event = { id = reveria.24 }
	}
	
	option = {
		trigger = { has_estate = estate_mages 
		estate_loyalty = {
		estate = estate_mages
		loyalty = 40
		}
		estate_influence = {
		estate = estate_mages
		influence = 50
		}
		}
		name = reveria.23.e
		ai_chance = { factor = 99 }
		add_treasury = -200
		country_event = { id = reveria.24 }
	}
	
	option = {
		name = reveria.23.f
		ai_chance = { factor = 1 }
		add_treasury = -400
		country_event = { id = reveria.24 }
	}
}
#Dome_secured
country_event = {
	id = reveria.24
	title = reveria.24.t
	desc = reveria.24.d
	picture = ARTWORK_eventPicture
	
	is_triggered_only = yes

		immediate = {
			hidden_effect = {
				every_country = {
					limit = {
						OR = {
							religion = ynn_river_worship
							religion = ynn_river_reformed
						}
					}
					country_event = { id = reveria.7 }
				}	
			}
		}
		
	option = {
		name = reveria.24.a
		ai_chance = { factor = 95 }
			capital_scope = { 
				add_province_modifier = { 
					name = reveria_golden_dome
					duration = -1
				}
			}
	}
	
	option = {
		name = reveria.24.b
		ai_chance = { factor = 5 }
		add_treasury = 2000
	}
}
#Bjarnrik_hosts
country_event = {
	id = reveria.25
	title = reveria.25.t
	desc = reveria.25.d
	picture = OVEREXTENSION_eventPicture
	
	is_triggered_only = yes

	option = {
		name = reveria.25.a
		ai_chance = { factor = 100 }
		add_prestige = 10
		add_treasury = -30
		A05 = {country_event = { id = reveria.1 days = 20  } }
	}
}
#reveria_claims_revrland_insult
country_event = {
	id = reveria.26
	title = reveria.26.t
	desc = reveria.26.d
	picture = ACCUSATION_eventPicture
	
	is_triggered_only = yes

	option = {
		name = reveria.26.a
		ai_chance = { factor = 100 }
		
			add_casus_belli = {
					type = 	cb_insult
					months = 300
					target = A05
			}
	}
}
#redgarhavn receives holmgang threat
country_event = {
	id = reveria.27
	title = reveria.27.t
	desc = reveria.27.d
	picture = ACCUSATION_eventPicture
	
	is_triggered_only = yes

	option = {
		name = reveria.27.a
		ai_chance = { factor = 80 }
			add_prestige = 10
					A05 = {country_event = { id = reveria.3 days = 1 } }
			}
			
	option = {
		name = reveria.27.b
		ai_chance = { factor = 20 }
			add_prestige = -30
					A05 = {country_event = { id = reveria.28 days = 1 } }
			}
			
}
#reveria_Redgarhavn refuses holmgang
country_event = {
	id = reveria.28
	title = reveria.28.t
	desc = reveria.28.d
	picture = GOOD_WITH_MONARCH_eventPicture
	
	is_triggered_only = yes

	option = {
		name = reveria.28.a
		ai_chance = { factor = 100 }
		
			add_casus_belli = {
					type = 	cb_insult
					months = 300
					target = Z13
			}
	}
}
#reveria_Redgarhavn has killed reveria ruler, reveria reads
country_event = {
	id = reveria.29
	title = reveria.29.t
	desc = reveria.29.d
	picture = DEATH_OF_HEIR_eventPicture
	
	is_triggered_only = yes

	option = {
		name = reveria.29.a
		ai_chance = { factor = 100 }
		kill_ruler = yes
		add_prestige = -20
		add_legitimacy = -5
		add_casus_belli = {
		target = Z13
		type = 	cb_insult
		months = 12
		}
			add_opinion = {
			who = Z13
			modifier = reveria_holmgang_execution
			}
	}
}
#reveria_Redgarhavn has spared reveria ruler, humiliating him
country_event = {
	id = reveria.30
	title = reveria.30.t
	desc = reveria.30.d
	picture = BAD_WITH_MONARCH_eventPicture
	
	is_triggered_only = yes

	option = {
		name = reveria.30.a
		ai_chance = { factor = 100 }
		
			add_opinion = {
			who = Z13
			modifier = reveria_holmgang_defeat
			}
	}
}
#reveria_Reveria has spared redgarhavn ruler, humiliating him
country_event = {
	id = reveria.31
	title = reveria.31.t
	desc = reveria.31.d
	picture = BAD_WITH_MONARCH_eventPicture
	
	is_triggered_only = yes

	option = {
		name = reveria.31.a
		ai_chance = { factor = 100 }
			add_prestige = -20
			add_opinion = {
			who = A05
			modifier = reveria_holmgang_defeat
			}
	}
}
#reveria_Reveria has spared redgarhavn ruler, taking the isle
country_event = {
	id = reveria.32
	title = reveria.32.t
	desc = reveria.32.d
	picture = BAD_WITH_MONARCH_eventPicture
	
	is_triggered_only = yes

	option = {
		name = reveria.32.a
		ai_chance = { factor = 100 }
			add_prestige = -20
			add_opinion = {
			who = A05
			modifier = reveria_holmgang_defeat
			}
	}
}
#reveria_Reveria has taken redgarhavn ruler his life
country_event = {
	id = reveria.33
	title = reveria.33.t
	desc = reveria.33.d
	picture = DEATH_OF_HEIR_eventPicture
	
	is_triggered_only = yes

	option = {
		name = reveria.33.a
		ai_chance = { factor = 100 }
			add_prestige = -20
			add_opinion = {
			who = A05
			modifier = reveria_holmgang_execution
			}
	}
}
#reveria gave borderlands to halflings
country_event = {
	id = reveria.34
	title = reveria.34.t
	desc = reveria.34.d
	picture = DIPLOMACY_eventPicture
	
	is_triggered_only = yes

	option = {
		name = reveria.34.a
		ai_chance = { factor = 100 }
			add_prestige = 10
	}
}
#reveria gave payment to halflings to keep the land
country_event = {
	id = reveria.35
	title = reveria.35.t
	desc = reveria.35.d
	picture = DIPLOMACY_eventPicture
	
	is_triggered_only = yes

	option = {
		name = reveria.35.a
		ai_chance = { factor = 100 }
		add_inflation = 1
	}
}
#reverian spies in the Small country region inform of halfings planning a rebellion and advice to not get into truces with the current halfling oppressors to Reveria can capitalize on a potential revolt by joining their war effort.
country_event = {
	id = reveria.36
	title = reveria.36.t
	desc = reveria.36.d
	picture = DIPLOMACY_eventPicture
	
	fire_only_once = yes
	trigger = {
	tag = A05
	is_year = 1535
	}
	mean_time_to_happen = {
		months = 1}
	option = {
		name = reveria.36.a
		ai_chance = { factor = 100 }
		define_advisor = {
    			type = spymaster
    			skill = 2
   				culture = redfoot_halfling
    			religion = regent_court
				discount = yes
			}
	}
}
#reveria gets the choice to change to the Gnome Co-Government reform
country_event = {
	id = reveria.37
	title = reveria.37.t
	desc = reveria.37.d
	picture = DIPLOMACY_eventPicture
	
	is_triggered_only = yes

	option = {
		name = reveria.37.a
		ai_chance = { factor = 100 }
		add_government_reform = gnomish_cogovernment_reform
		add_country_modifier = {
			name= "reveria_restructuring_government"
			duration = 1825
		}
	}
	
	option = {
		name = reveria.37.b
		ai_chance = { factor = 0 }
		add_prestige = 10
	}
}
#reveria gets the choice to change to the Skaldhyrric Faith1
country_event = {
	id = reveria.38
	title = reveria.38.t
	desc = reveria.38.d
	picture = DIPLOMACY_eventPicture

	is_triggered_only = yes

	option = {
		name = reveria.38.a
		ai_chance = { factor = 50 }
		add_prestige = 10
	}

	option = {
		name = reveria.38.b
		ai_chance = { factor = 50 }
		add_legitimacy = -10
		add_estate_loyalty = {
				estate = estate_church
				loyalty = -30
			}
		set_ruler_religion = skaldhyrric_faith
		set_heir_religion = skaldhyrric_faith
		country_event = { id = reveria.39 days = 31 }
	}

	option = {
		name = reveria.38.c
		ai_chance = { factor = 100 }
		trigger = { religion = the_thought }
		add_harmonized_religion = skaldhyrric_faith
		add_harmony = -25
		hidden_effect = { remove_country_modifier = reveria_thought_tolerance_campaign}
	}
}
#reveria gets the choice to change to the Skaldhyrric Faith2
country_event = {
	id = reveria.39
	title = reveria.39.t
	desc = reveria.39.d
	picture = DIPLOMACY_eventPicture

	is_triggered_only = yes

	option = {
		name = reveria.39.a
		ai_chance = { factor = 50 }
		add_prestige = 10
		add_estate_loyalty = {
				estate = estate_church
				loyalty = 15
			}
	}

	option = {
		name = reveria.39.b
		ai_chance = { factor = 50 }
		add_stability = -1
		add_legitimacy = -10
		add_adm_power = -100
		add_treasury = -100
		add_estate_loyalty = {
				estate = estate_church
				loyalty = -30
			}
		set_consort_religion = skaldhyrric_faith
		change_religion = skaldhyrric_faith
		add_country_modifier = {
		name= "reveria_new_state_religion"
		duration = 7300
		}
		hidden_effect = { remove_country_modifier = reveria_thought_tolerance_campaign}
	}
}
#reveria gets the choice to change to The Thought Faith1
country_event = {
	id = reveria.40
	title = reveria.40.t
	desc = reveria.40.d
	picture = DIPLOMACY_eventPicture

	is_triggered_only = yes

	option = {
		name = reveria.40.a
		ai_chance = { factor = 50 }
		add_prestige = 10
	}

	option = {
		name = reveria.40.b
		ai_chance = { factor = 50 }
		add_legitimacy = -10
		add_estate_loyalty = {
				estate = estate_church
				loyalty = -30
			}
		set_ruler_religion = the_thought
		set_heir_religion = the_thought
		country_event = { id = reveria.41 days = 31 }
		}
}
#reveria gets the choice to change to The Thought Faith2
country_event = {
	id = reveria.41
	title = reveria.41.t
	desc = reveria.41.d
	picture = DIPLOMACY_eventPicture

	is_triggered_only = yes

	option = {
		name = reveria.41.a
		ai_chance = { factor = 50 }
		add_prestige = 10
		add_estate_loyalty = {
				estate = estate_church
				loyalty = 15
			}
	}

	option = {
		trigger = { religion_group = cannorian }
		name = reveria.41.b
		ai_chance = { factor = 50 }
		add_stability = -1
		add_legitimacy = -10
		add_estate_loyalty = {
				estate = estate_church
				loyalty = -30
			}
		set_consort_religion = the_thought
		change_religion = the_thought
		add_harmonized_religion = regent_court
		add_harmony = -25
		hidden_effect = { remove_country_modifier = reveria_thought_tolerance_campaign}
	}

	option = {
		trigger = { religion_group = gerudian }
		name = reveria.41.c
		ai_chance = { factor = 50 }
		add_stability = -1
		add_legitimacy = -10
		add_estate_loyalty = {
				estate = estate_church
				loyalty = -30
			}
		set_consort_religion = the_thought
		change_religion = the_thought
		add_harmonized_religion = skaldhyrric_faith
		add_harmonized_religion = regent_court
		add_harmony = -50
		hidden_effect = { remove_country_modifier = reveria_thought_tolerance_campaign}
	}
}
#reverian winebox chain1
country_event = {
	id = reveria.42
	title = reveria.42.t
	desc = reveria.42.d
	picture = TRADEGOODS_eventPicture
	
	fire_only_once = yes
	trigger = {
	tag = A01
	A05 = {has_ruler = "Lothane III"}
	A30 = {has_ruler = "Lothane III"}
	A01 = { alliance_with = A30 }
	
	}
	mean_time_to_happen = {
		months = 60}
	option = {
		name = reveria.42.a
		ai_chance = { factor = 90 }
		add_treasury = -10
		hidden_effect = { 
			random_list = {
				65 = {
				A30 = {country_event = { id = reveria.43 days = 10 }}}
				35 = {
				A05 = {country_event = { id = reveria.44 days = 10 }}}
			}
		}
	}
	option = {
		name = reveria.42.b
		ai_chance = { factor = 10 }
		add_prestige = 5
	}
}
#reveria, the wine arrives at wex
country_event = {
	id = reveria.43
	title = reveria.43.t
	desc = reveria.43.d
	picture = IMPORTANT_STATUE_eventPicture
	
	is_triggered_only = yes

	option = {
		name = reveria.43.a
		ai_chance = { factor = 90 }
		add_prestige = 1
		add_treasury = -10 
		add_opinion = {
			who = A01
			modifier = reveria_received_gift
		}
			A01 = {country_event = { id = reveria.45 days = 10}}
	}
	
	option = {
		name = reveria.43.b
		ai_chance = { factor = 10 }
		add_prestige = 10
		add_opinion = {
			who = A01
			modifier = reveria_received_gift
		}
			A01 = {country_event = { id = reveria.46 days = 10}}
	}
}
#reveria, the wine arrives at reveria
country_event = {
	id = reveria.44
	title = reveria.44.t
	desc = reveria.44.d
	picture = DIPLOMACY_eventPicture
	
	is_triggered_only = yes

	option = {
		name = reveria.44.a
		ai_chance = { factor = 50 }
			A01 = {country_event = { id = reveria.48 days = 10}}
	}
	
	option = {
		name = reveria.44.b
		ai_chance = { factor = 50 }
		add_prestige = 5
		reverse_add_opinion = {
			who = A01
			modifier = reveria_stole_gift
		}
			A01 = {country_event = { id = reveria.47 days = 10}}
		
	}
}
#reveria, the sword arrives at lorent
country_event = {
	id = reveria.45
	title = reveria.45.t
	desc = reveria.45.d
	picture = TRADEGOODS_eventPicture
	
	is_triggered_only = yes

	option = {
		name = reveria.45.a
		ai_chance = { factor = 100 }
		add_opinion = {
			who = A30
			modifier = reveria_received_gift
		}
		add_prestige = 1
	}
}
#reveria, lorent finds out wex is not sending a gift back
country_event = {
	id = reveria.46
	title = reveria.46.t
	desc = reveria.46.d
	picture = BAD_WITH_MONARCH_eventPicture
	
	is_triggered_only = yes

	option = {
		name = reveria.46.a
		ai_chance = { factor = 100 }
		add_opinion = {
			who = A30
			modifier = reveria_unrequited_gift
		}
	}
}
#reveria, lorent finds out reveria is keeping the wine
country_event = {
	id = reveria.47
	title = reveria.47.t
	desc = reveria.47.d
	picture = BAD_WITH_MONARCH_eventPicture
	
	is_triggered_only = yes

	option = {
		name = reveria.47.a
		ai_chance = { factor = 10 }
		add_opinion = {
			who = A05
			modifier = reveria_stole_gift
		}
		add_casus_belli = {
		target = A05
		type = 	cb_insult
		months = 12
		}
	}
	option = {
		name = reveria.47.b
		ai_chance = { factor = 90 }
		add_treasury = -10
		add_opinion = {
			who = A05
			modifier = reveria_stole_gift
		}
		add_casus_belli = {
		target = A05
		type = 	cb_insult
		months = 12
		}
		A30 = {country_event = { id = reveria.43 days = 10 }}
	}
}
#reveria, lorent finds out reveria is returning the wine
country_event = {
	id = reveria.48
	title = reveria.48.t
	desc = reveria.48.d
	picture = GOOD_WITH_MONARCH_eventPicture
	
	is_triggered_only = yes

	option = {
		name = reveria.48.a
		ai_chance = { factor = 30 }
		add_treasury = -5 
		add_opinion = {
			who = A05
			modifier = reveria_returned_gift
		}
		A30 = {country_event = { id = reveria.43 days = 10 }}
	}
	option = {
		name = reveria.48.b
		ai_chance = { factor = 70 }
		add_treasury = -15
		add_prestige = 5
		add_opinion = {
			who = A05
			modifier = reveria_returned_gift
		}
		A30 = {country_event = { id = reveria.43 days = 10 }}
		A05 = {country_event = { id = reveria.49 days = 10 }}
	}
}
#reveria, reveria receives a thank you bottle
country_event = {
	id = reveria.49
	title = reveria.49.t
	desc = reveria.49.d
	picture = GOOD_WITH_MONARCH_eventPicture
	
	is_triggered_only = yes

	option = {
		name = reveria.49.a
		ai_chance = { factor = 80 }
		add_prestige = 1
		add_treasury = -10
		add_opinion = {
			who = A01
			modifier = reveria_received_gift
		}
		A01 = {country_event = { id = reveria.50 days = 10 }}
	}
	option = {
		name = reveria.49.b
		ai_chance = { factor = 20 }
		add_prestige = 5
		add_opinion = {
			who = A01
			modifier = reveria_received_gift
		}
	}
}
#reveria, lorent receives Reverian Fish
country_event = {
	id = reveria.50
	title = reveria.50.t
	desc = reveria.50.d
	picture = GOOD_WITH_MONARCH_eventPicture
	
	is_triggered_only = yes

	option = {
		name = reveria.50.a
		ai_chance = { factor = 100 }
		add_prestige = 5
		add_opinion = {
			who = A05
			modifier = reveria_received_gift
		}
	}
}
#reveria, reveria small country friendship pact, Rev side
country_event = {
	id = reveria.51
	title = reveria.51.t
	desc = reveria.51.d
	picture = LIBERUM_VETO_eventPicture
	
	fire_only_once = yes

	trigger = {
	tag = A05
	A05 = { alliance_with = A97 historical_friend_with = A97 }
	A97 = { is_at_war = no }
	}
	
	mean_time_to_happen = {
		months = 2 }
	
	option = {
		name = reveria.51.a
		ai_chance = { factor = 100 }
		large_increase_of_halfling_tolerance_effect = yes
		capital_scope = { add_halfling_minority_size_effect = yes }
		add_country_modifier = {
		name= "reveria_halfling_merc_adv"
		duration = -1
		}
		A97 = { country_event = { id = reveria.52 days = 1 } }
	}
	
}
#reveria, reveria small country friendship pact, halfling side
country_event = {
	id = reveria.52
	title = reveria.52.t
	desc = reveria.52.d
	picture = GOOD_WITH_MONARCH_eventPicture
	
	is_triggered_only = yes

	option = {
		name = reveria.52.a
		ai_chance = { factor = 100 }
		large_increase_of_human_tolerance_effect = yes
		capital_scope = { add_human_minority_size_effect = yes }
		add_country_modifier = {
		name= "reveria_reverian_boatsmiths"
		duration = -1
		}
	}
}