#Yingshi Events

namespace = yingshi

#Lies and Slander 

country_event = {
	id = yingshi.1
	title = yingshi.1.t
	desc = yingshi.1.d
	picture = ANGRY_MOB_eventPicture
	
	is_triggered_only = yes

	trigger =	{
		always = yes
	}
	
	option = { #Perform the attack
		name = yingshi.1.a
		
	# Y01 = {
		# country_event = {
			# id = yingshi.2
			# days = 15
			# }
		# }
		
	ROOT =  { 
		declare_war_with_cb = {
			who = Y02
			casus_belli = cb_core
			war_goal_province = 4851
			}
		}
	if = {
		limit = {
			Y01 = {
				ai = yes
			}
		}
		4848 = { change_controller = Y10 }
	}
	
	Y02 = {
		country_event = {
			id = yingshi.3
			days = 1
			}
		}
	}
}

		

#Lies And Slander 2
# country_event = {
	# id = yingshi.2
	# title = yingshi.2.t
	# desc = yingshi.2.d
	# picture = ANGRY_MOB_eventPicture
	
	# is_triggered_only = yes
	
	# trigger = {
		# always = yes
	# }
	
	
	# option = { #Declare War on Jingqui
		# name = yingshi.2.a
		# ai_chance = {
			# factor = 100
					  # }
					
	# Y01 = {
			# declare_war_with_cb = {
				# who = Y02
				# casus_belli = cb_humiliate_rotw
									# }
		  # }
	# add_manpower = -2
	# }
					  
	# option = { #Back Down
		# name = yingshi.2.b
		# ai_chance = {
			# factor = 0
					 # }
					 
	# add_prestige = -20
	# add_manpower = -2
	# }
	
# }

#Lies and Slander 3
country_event = {
	id = yingshi.3
	title = yingshi.3.t
	desc = yingshi.3.d
	picture = ANGRY_MOB_eventPicture
	
	is_triggered_only = yes

	trigger =	{
		always = yes
	}
	
	option = { #wtf happened
		name = yingshi.3.a
		
	add_prestige = -20
		}
	}

#A Keeper of Secrets
country_event = {
	id = yingshi.4
	title = yingshi.4.t
	desc = yingshi.4.d
	picture = ADVISOR_eventpicture
	
	is_triggered_only = yes

	trigger =	{
		always = yes
	}
	
	option = { #Neat
		name = yingshi.4.a
		}
}
		
#Oni Overture
country_event = {
	id = yingshi.5
	title = yingshi.5.t
	desc = yingshi.5.d
	picture = DIPLOMACY_SIGNING_eventPicture
	
	is_triggered_only = yes

	trigger =	{
		always = yes
	}
	
	option = {  #Accept
		name = yingshi.5.a
		ai_chance = {
			factor = 100
				}
		
		FROM = {
			country_event = {
				id = yingshi.6
				days = 30
				}
			}
		# create_subject = {
			# subject_type = "tributary_state"
			# subject = Y10
			# }
	}
	
		option = {  #Deny
		name = yingshi.5.b
		ai_chance = {
			factor = 0
				}
				
		add_prestige = -20
	}
}

#Oni Overture 2
country_event = {
	id = yingshi.6
	title = yingshi.6.t
	desc = yingshi.6.d
	picture = DIPLOMACY_SIGNING_eventPicture
	
	is_triggered_only = yes

	trigger =	{
		always = yes
	}
	
		option = {  #Neat
		name = yingshi.6.a

		add_country_modifier = {
			name = yingshi_oni_tutelage
			duration = 9125
			}
			
		FROM = {
			create_subject = {
			subject_type = "tributary_state"
			subject = Y10
			}
		}
		}
}
	
#The Contract Fulfilled
country_event = {
	id = yingshi.7
	title = yingshi.7.t
	desc = yingshi.7.d
	picture = PEASANTS_BARTERING_eventPicture
	
	is_triggered_only = yes

	trigger =	{
		always = yes
	}
	
	option = { #Success
	name = yingshi.7.a
	
	add_country_modifier = {
		name = yingshi_oni_bounty
		duration = 3650
		}
	add_treasury = 100
	}
}

#The Contract Fulfilled 2
country_event = {
	id = yingshi.8
	title = yingshi.8.t
	desc = yingshi.8.d
	picture = PEASANTS_BARTERING_eventPicture
	
	is_triggered_only = yes

	trigger =	{
		always = yes
	}
	
	option = { #rip
	name = yingshi.8.a
	
	kill_advisor = random
	}
}

#Anjiang Murder
country_event = {
	id = yingshi.9
	title = yingshi.9.t
	desc = yingshi.9.d
	picture = GENERALS_DISCUSSING_eventPicture
	
	is_triggered_only = yes

	trigger =	{
		always = yes
	}
	
	option = { #here we go
	name = yingshi.9.a
	
	Y04 = {
		country_event  = {
			id = yingshi.13
			days = 3
			}
		}
	}
}

#Best Things 1 - Preparation
country_event = {
	id = yingshi.10
	title = yingshi.10.t
	desc = yingshi.10.d
	picture = ASSASSINATION_eventpicture
	
	is_triggered_only = yes

	trigger =	{
		always = yes
	}
	
	option = { #ok
	name = yingshi.10.a
	}
}

#Best Things 2 - Rival is Murdered
country_event = {
	id = yingshi.11
	title = yingshi.11.t
	desc = yingshi.11.d
	picture = ASSASSINATION_eventpicture
	
	is_triggered_only = yes

	trigger =	{
		always = yes
	}
	
	option = { #rip ruler :c
	name = yingshi.11.a
	
	kill_ruler = yes
	
	hidden_effect = {
		FROM = { 
			country_event = {
				id = yingshi.12
				days = 2
				}
			}
		}
	}
}


#Best Things 3 - Victorious
country_event = {
	id = yingshi.12
	title = yingshi.12.t
	desc = yingshi.12.d
	picture = ASSASSINATION_eventpicture
	
	is_triggered_only = yes

	trigger =	{
		always = yes
	}
	
	option = { #ok
	name = yingshi.12.a
	
	add_prestige = 30
	}
}

#Anjiang Choice
country_event = {
	id = yingshi.13
	title = yingshi.13.t
	desc = yingshi.13.d
	picture = GENERALS_DISCUSSING_eventPicture
	
	is_triggered_only = yes

	trigger =	{
		always = yes
	}
	
	option = { #trust the emissaries! 
	name = yingshi.13.a
	
	ai_chance = {
		factor = 100
			}
			
		remove_historical_friend = Y06
		remove_historical_friend = Y07
		remove_historical_friend = Y08
	
		add_trust = {
			who = Y10	
			value = -30
			mutual = yes
				}
					
		reverse_add_opinion = {
			who = Y10
			modifier = anjiang_going_alone
		}
		remove_opinion = {
			who = Y10 
			modifier = anjiang_going_alone
		}
				
		set_ai_attitude = {
			attitude = attitude_hostile
			who = Y10
			locked = no
				}
				
		add_trust = {
			who = Y06	
			value = -30
			mutual = yes
				}
				
		reverse_add_opinion = {
			who = Y06
			modifier = anjiang_going_alone
		}
		remove_opinion = {
			who = Y06 
			modifier = anjiang_going_alone
		}		
				
		set_ai_attitude = {
			attitude = attitude_hostile
			who = Y06
			locked = no
				}
				
		add_trust = {
			who = Y07	
			value = -30
			mutual = yes
				}
				
		reverse_add_opinion = {
			who = Y07
			modifier = anjiang_going_alone
		}
		
		remove_opinion = {
			who = Y07
			modifier = anjiang_going_alone
		}
		
		set_ai_attitude = {
			attitude = attitude_hostile
			who = Y07
			locked = no
				}
				
		add_trust = {
			who = Y08	
			value = -30
			mutual = yes
				}
				
		reverse_add_opinion = {
			who = Y08
			modifier = anjiang_going_alone
		}
		
		remove_opinion = {
			who = Y08
			modifier = anjiang_going_alone
		}
		
		set_ai_attitude = {
			attitude = attitude_hostile
			who = Y08
			locked = no
				}
	
		add_prestige = 50
		
		every_country = {
			limit = {
				OR = {
					tag = Y10
					tag = Y06
					tag = Y07
					tag = Y08
					}
				}
			country_event = {
				id = yingshi.14
				days = 10
				}
			}
		
		}
		
	option = { #Player opt out
		name = yingshi.13.b
		
		ai_chance = {
			factor = 0
				}
				
		add_stability = -1
		
	}
		
	
}


#Anjiang Aftermath
country_event = {
	id = yingshi.14
	title = yingshi.14.t
	desc = yingshi.14.d
	picture = GENERALS_DISCUSSING_eventPicture
	
	is_triggered_only = yes

	trigger =	{
		always = yes
	}
	
	option = { #wtf
	name = yingshi.14.a
	
	add_prestige = -10
	
	
	}
}
#Steal The Vote 1
country_event = {
	id = yingshi.15
	title = yingshi.15.t
	desc = yingshi.15.d
	picture = AULIC_COUNCIL_eventPicture
	
	is_triggered_only = yes

	trigger =	{
		always = yes
	}
	
	option = { #Rig It
		name = yingshi.15.a
		
		Y06 = {
			country_event = {
				id = yingshi.16
				days = 150
			}
		}
		
	}
}

#Steal The Vote 2
country_event = {
	id = yingshi.16
	title = yingshi.16.t
	desc = yingshi.16.d
	picture = AULIC_COUNCIL_eventPicture
	
	is_triggered_only = yes

	trigger =	{
		always = yes
	}
	
	option = { #Accept Results
		name = yingshi.16.a
		
		ai_chance = {
			factor = 100
			}
		
	
		
		
	Y10 = {
		country_event = {
			id = yingshi.17
			}
		inherit = Y06
			
		}
		
	}
	option = { #Player Opt Out
		name = yingshi.15.b
		
		ai_chance = {
			factor = 0
			}
			
		add_stability = -1
	}
}
#Steal The Vote 3
country_event = {
	id = yingshi.17
	title = yingshi.17.t
	desc = yingshi.17.d
	picture = AULIC_COUNCIL_eventPicture
	
	is_triggered_only = yes

	trigger =	{
		always = yes
	}
	
	option = { #cool
		name = yingshi.17.a
						
	}
}

#Steal The Vote 4 revolt
country_event = {
	id = yingshi.18
	title = yingshi.18.t
	desc = yingshi.18.d
	picture = ANGRY_MOB_eventPicture
	
	is_triggered_only = yes

	trigger =	{
		always = yes
	}
	
	option = { #oh shit oh fuck
		name = yingshi.18.a
		
		4861 = {
			spawn_rebels = {
				type = seperatist_rebels
				size = 3
				}
			}
			
						
	}
}
#Corrupt The Patrol 1
country_event = {
	id = yingshi.19
	title = yingshi.19.t
	desc = yingshi.19.d
	picture = MERCHANTS_TALKING_eventPicture
	
	is_triggered_only = yes

	trigger =	{
		always = yes
	}
	
	option = { #let's do it
		name = yingshi.19.a
		
		Y08 = {
			country_event = {
				id = yingshi.20
				days = 730
			}
		}	
	}
}
#Corrupt The Patrol 2
country_event = {
	id = yingshi.20
	title = yingshi.20.t
	desc = yingshi.20.d
	picture = MERCHANTS_TALKING_eventPicture
	
	is_triggered_only = yes

	trigger =	{
		always = yes
	}
	
	option = { #rip
		name = yingshi.20.a
		ai_chance = {
			factor = 100
			}
		
		FROM = { 
			inherit = ROOT
			country_event = {
				id = yingshi.21
			}
		}
		Y07 = {
			country_event = {
				id = yingshi.22
				days = 40
			}
		}
		4855 = { add_permanent_claim = Y07 }
		4859 = { add_permanent_claim = Y07 }
	}	
	option = { #player opt out
		name = yingshi.20.b
		ai_chance = {
			factor = 0
			}
		add_stability = -1
	}
}

#Corrupt The Patrol 3
country_event = {
	id = yingshi.21
	title = yingshi.21.t
	desc = yingshi.21.d
	picture = MERCHANTS_TALKING_eventPicture
	
	is_triggered_only = yes

	trigger =	{
		always = yes
	}
	
	option = { #cool
		name = yingshi.21.a
		
		4950 = { add_permanent_claim = ROOT }
		4958 = { add_permanent_claim = ROOT }
	}	
}
#Corrupt The Patrol 4
country_event = {
	id = yingshi.22
	title = yingshi.22.t
	desc = yingshi.22.d
	picture = MERCHANTS_TALKING_eventPicture
	
	is_triggered_only = yes

	trigger =	{
		always = yes
	}
	
	option = { #rip
		name = yingshi.22.a
		ai_chance = {
			factor = 100
			}
			

		
		declare_war = Y10
					
	}	
	option = { #player opt out
		name = yingshi.22.b
		ai_chance = {
			factor = 0
			}
		add_stability = -1
	}
}

#Random Spy Events

# country_event = { #Handler
	# id = yingshi.23
	# title = yingshi.23.t
	# desc = yingshi.23.d
	# picture = ANGRY_MOB_eventPicture
	# hidden = yes
	# trigger =	{
		# OR = {
			# any_rival_country = {
				# has_spy_network_from = {
					# who = root
					# value = 60
				# }
			# }
			# any_enemy_country = {
				# has_spy_network_from = {
					# who = root
					# value = 60
				# }
			# }
			# any_country = {
				# war_with = ROOT
				# has_spy_network_from = {
					# who = root
					# value = 60
				# }
			# }
			
		# }
		# NOT = { has_country_modifier = yingshi_best_things_cd } 
		# NOT = { has_country_flag = best_things_ongoing }
	# }
	
	# mean_time_to_happen = {
		# months = 6
	# }
	
	# immediate = {
		# set_country_flag = best_things_ongoing
		
		# random_list = {
			# 33 = {
				# random_rival_country = {
					# limit = {
						# has_spy_network_from = {
							# who = root
							# value = 60
						# }
					# }
					# save_event_target_as = best_things_target		
				# }
			# }
			# 33 = {
				# random_enemy_country = {
					# limit = {
						# has_spy_network_from = {
							# who = root
							# value = 60
						# }
					# }
					# save_event_target_as = best_things_target	
				# }
			# }
			# 33 = {
				# random_country = {
					# limit = {
						# war_with = ROOT
						# has_spy_network_from = {
							# who = root
							# value = 60
						# }
					# }
					# save_event_target_as = best_things_target
				# }		
			# }
		# }
	# }
	
	# option = { #cool
		# name = yingshi.41.a
		
		# if = {
			# limit = { 
				# best_things_target = { war_with = ROOT }
			# }
			
			# random_list = {
				# 30 = country_event = { id = yingshi.24 }
				# 20 = country_event = { id = yingshi.25 }
			# }
		# }

	# }	
# }



# Further MT Events

#The Scale Sale
country_event = {
	id = yingshi.40
	title = yingshi.40.t
	desc = yingshi.40.d
	picture = BORDER_TENSION_eventPicture
	
	is_triggered_only = yes

	trigger =	{
		always = yes
	}
	
	option = { #rip kobolds
		name = yingshi.40.a
		ai_chance = {
			factor = 50
			}
			
		add_treasury = 500
		
		4976 = { #Balrisen
			change_culture = ROOT
			change_religion = ROOT
			add_devastation = 30
		}
		4856 = { #Irrinuaz
			change_culture = ROOT
			change_religion = ROOT
			add_devastation = 30
		}
		
		large_decrease_of_kobold_tolerance_effect = yes

					
	}	
	option = { #protect kobolds
		name = yingshi.40.b
		ai_chance = {
			factor = 50
			}
		add_country_modifier = {
			name = yingshi_spare_kobolds
			duration = 9100
		}
		4849 = { #Yingshi
			add_kobold_minority_size_effect = yes
		}
		small_increase_of_kobold_tolerance_effect = yes
	}
}

country_event = { #The Wayward City
	id = yingshi.41
	title = yingshi.41.t
	desc = yingshi.41.d
	picture = CONQUEST_eventPicture
	
	is_triggered_only = yes

	trigger =	{
		always = yes
	}
	
	option = { #cool
		name = yingshi.41.a
		ai_chance = {
			factor = 100
		}
		
		add_country_modifier = {
			name = yingshi_unified
			duration = 5460
		}
	}	
}

country_event = { #Trade Secrets
	id = yingshi.42
	title = yingshi.42.t
	desc = yingshi.42.d
	picture = BUCCANEERS_eventPicture
	
	is_triggered_only = yes

	trigger =	{
		always = yes
	}
	
	option = { #cool
		name = yingshi.42.a
		ai_chance = {
			factor = 100
			}
		
		# This needs to be rethought entirely as artifice capacity does not work like this
		# add_country_modifier = {
		# 	name = yingshi_art_cap
		# 	duration = 9100
		# }
	}	
}

country_event = { #Ask Oni for Ally
	id = yingshi.43
	title = yingshi.43.t
	desc = yingshi.43.d
	picture = CORRUPTION_eventPicture
	
	is_triggered_only = yes

	trigger =	{
		always = yes
	}
	
	option = { #do it
		name = yingshi.43.a
		ai_chance = {
			factor = 100
		}
		add_prestige = 5
		if {
			limit = {
				exists = Y01
			}		
			Y01 = {
				country_event = {
					id = yingshi.44
					days = 10
				}
			}
		}
	}
}	


country_event = { #Ask Oni for Ally - Oni Response
	id = yingshi.44
	title = yingshi.44.t
	desc = yingshi.44.d
	picture = CORRUPTION_eventPicture
	
	is_triggered_only = yes

	trigger =	{
		always = yes
	}
	
	option = { #do it
		name = yingshi.44.a
		ai_chance = {
			factor = 100
		}
		
		FROM = { 
			country_event = { 
				id = yingshi.45 
			} 
			grant_independence = yes
		}
		ROOT = {
			create_alliance = Y10
		}
		add_opinion = {
			who = Y10
			modifier = yingshi_oni_friends
		}
		reverse_add_opinion = {
			who = Y10
			modifier = yingshi_oni_friends
		}
		add_trust = {
			who = Y10
			value = 25
			mutual = yes
		}
	}
	option = { #player opt out
		name = yingshi.44.b
		ai_chance = {
			factor = 0
		}
		
	}	
}

country_event = { #Oni say yes
	id = yingshi.45
	title = yingshi.45.t
	desc = yingshi.45.d
	picture = CORRUPTION_eventPicture
	
	is_triggered_only = yes

	trigger =	{
		always = yes
	}
	
	option = { #cool
		name = yingshi.45.a
		ai_chance = {
			factor = 100
		}
	}
}	


country_event = { #Sinistral Election
	id = yingshi.46
	title = yingshi.46.t
	desc = yingshi.46.d 
	picture = NUSANTARA_THRONE_eventPicture
	
	is_triggered_only = yes

	trigger =	{
		mission_completed = yingshi_assassins_creed
	}	
	
	option = { #Spymaster
		name = yingshi.46.a
		ai_chance = { factor = 25 } 
		define_ruler = {
			change_adm = 2
			max_random_adm = 6
			max_random_dip = 4
			max_random_mil = 4
			random_gender = yes
			min_age = 34
			max_age = 46
			culture = river_yan
		}
		if = {
			limit = { NOT = { has_country_flag = yingshi_spymaster_ruler } }
				set_country_flag = yingshi_spymaster_ruler
		}
	}
	
	option = { #Assassin
		name = yingshi.46.b
		ai_chance = { factor = 25 } 
		define_ruler = {
			change_mil = 2
			max_random_adm = 4
			max_random_dip = 4
			max_random_mil = 6
			random_gender = yes
			min_age = 34
			max_age = 46
			culture = river_yan
		}
		if = {
			limit = { NOT = { has_country_flag = yingshi_assassin_ruler } }
				set_country_flag = yingshi_assassin_ruler
				set_ruler_flag = yingshi_first_assassin
		}
	}
	
	option = { #Trafficker
		name = yingshi.46.c
		ai_chance = { factor = 25 } 
		define_ruler = {
			change_dip = 2
			max_random_adm = 4
			max_random_dip = 6
			max_random_mil = 4
			random_gender = yes
			min_age = 34
			max_age = 46
			culture = river_yan
		}
		if = {
			limit = { NOT = { has_country_flag = yingshi_trafficker_ruler } }
				set_country_flag = yingshi_trafficker_ruler
				set_ruler_flag = yingshi_first_trafficker
		}
	}
	
	option = { #Oni
		name = yingshi.46.e
		trigger = { high_tolerance_ogre_race_trigger = yes }
		ai_chance = { factor = 25 } 
		define_ruler = {
			change_adm = 1
			change_dip = 1
			change_mil = 1
			max_random_adm = 5
			max_random_dip = 5
			max_random_mil = 5
			random_gender = yes
			min_age = 34
			max_age = 46
			culture = horned_ogre
		}
		if = {
			limit = { NOT = { has_country_flag = yingshi_oni_ruler } }
				set_country_flag = yingshi_oni_ruler
				set_ruler_flag = yingshi_first_oni
		}
		hidden_effect = {
			add_ruler_personality = mage_personality
			country_event = {
				id =  magic_ruler.102
				days = 45
			}

		}
	}
}

country_event = { #Fear of Emperors
	id = yingshi.47
	title = yingshi.47.t
	desc = yingshi.47.d 
	picture = ASSASSINATION_eventPicture
	
	is_triggered_only = yes

	trigger =	{
		always = yes
	}	
	
	option = { #neat
		name = yingshi.47.a
	}
}

country_event = { #Masters of Spirits
	id = yingshi.48
	title = yingshi.48.t
	desc = yingshi.48.d 
	picture = BIG_BOOK_eventPicture
	
	is_triggered_only = yes

	trigger =	{
		always = yes
	}	
	
	option = { #neat
		name = yingshi.48.a
		ai_chance = { factor = 100 }
		
		add_country_modifier = {
			name = yingshi_masters_of_spirits
			duration = 50
		}
	}
}

country_event = { #Creed
	id = yingshi.49
	title = yingshi.49.t
	desc = yingshi.49.d 
	picture = NUSANTARA_THRONE_eventPicture
	
	is_triggered_only = yes

	trigger =	{
		always = yes
	}	
	
	option = { #neat
		name = yingshi.49.a
		ai_chance = { factor = 100 }
		
		define_ruler = {
			name = "Zhan The Waking"
			dynasty = "Blade"
			adm = 4
			dip = 5
			mil = 6
			age = 36
			culture = ROOT
		}
	}
}

country_event = { #Contract Work
	id = yingshi.60
	title = yingshi.60.t
	desc = yingshi.60.d 
	picture = SPY_eventPicture
	
	is_triggered_only = yes

	trigger =	{
		always = yes
	}	
	
	option = { #Sabotage Advisors
		name = yingshi.60.a
		ai_chance = { factor = 100 }
		
		add_mil_power = 100
		add_adm_power = 100
		add_dip_power = 100
		
		event_target:yingshi_contract_target = {
			add_adm_power = -150
			add_dip_power = -150
			add_mil_power = -150
			
			kill_advisor = random
		}	
		
		add_spy_network_in = {
					who = event_target:yingshi_contract_target
					value = -40
				}
		
		if = {
			limit = { full_idea_group = spy_ideas }
			add_country_modifier = {
				name = best_things_cd
				duration = 1500
			}
		}
		else = {
			add_country_modifier = {
				name = best_things_cd
				duration = 3600
			}
		}
	}
	
	option = { #Disrupt Merchants
		name = yingshi.60.b 
		ai_chance = { factor = 100 }
		
		add_years_of_income = 0.1

		event_target:yingshi_contract_target = {
			add_years_of_income = -0.2
		}
		
		if = {
			limit = { full_idea_group = spy_ideas }
			add_country_modifier = {
				name = best_things_cd
				duration = 1500
			}
		}
		else = {
			add_country_modifier = {
				name = best_things_cd
				duration = 3600
			}
		}
		add_spy_network_in = {
			who = event_target:yingshi_contract_target
			value = -40
		}
	}
	
	option = { #Murder Officers 
		name = yingshi.60.c
		ai_chance = { factor = 100 }
		
		add_mil_power = 150
		
		event_target:yingshi_contract_target = {
			add_mil_power = -200
			add_army_tradition = -10
		}	
		add_spy_network_in = {
			who = event_target:yingshi_contract_target
			value = -40
		}
		
		if = {
			limit = { full_idea_group = spy_ideas }
			add_country_modifier = {
				name = best_things_cd
				duration = 1500
			}
		}
		else = {
			add_country_modifier = {
				name = best_things_cd
				duration = 3600
			}
		}
	}
}

country_event = { #Assassination
	id = yingshi.61
	title = yingshi.61.t
	desc = yingshi.61.d 
	picture = ASSASSINATION_eventPicture
	
	is_triggered_only = yes

	trigger =	{
		always = yes
	}	
	
	option = { #DO IT
		name = yingshi.61.a
		ai_chance = { factor = 100 }
		
		add_spy_network_in = {
					who = event_target:yingshi_assassination_target
					value = -100
				}
		
		if = {
			limit = {
				event_target:yingshi_assassination_target = {
					ruler_has_personality = mage_personality
				}
			}
			random_list = {
				70 = {
					event_target:yingshi_assassination_target = {
						kill_ruler = yes
					}
				}
				30 = { }
			}
		}
		else = {
			random_list = {
				85 = {
					event_target:yingshi_assassination_target = {
						kill_ruler = yes
					}
				}
				15 = { }
			}
		}
		
		if = {
			limit = { full_idea_group = spy_ideas }
			add_country_modifier = {
				name = best_things_cd
				duration = 3600
			}
		}
		else = {
			add_country_modifier = {
				name = best_things_cd
				duration = 7200
			}
		}		
	}
	
	option = {#nvm
		name = yingshi.61.b
		ai_chance = { factor = 0 }
	}
}
